\relax 
\catcode `"\active 
\providecommand \oddpage@label [2]{}
\select@language{russian}
\@writefile{toc}{\select@language{russian}}
\@writefile{lof}{\select@language{russian}}
\@writefile{lot}{\select@language{russian}}
\citation{1}
\citation{2}
\@writefile{toc}{\contentsline {chapter}{\IeC {\CYRV }\IeC {\cyrv }\IeC {\cyre }\IeC {\cyrd }\IeC {\cyre }\IeC {\cyrn }\IeC {\cyri }\IeC {\cyre }}{7}}
\citation{2}
\@writefile{toc}{\contentsline {chapter}{\numberline {1}\IeC {\CYRN }\IeC {\cyre }\IeC {\cyrishrt }\IeC {\cyrr }\IeC {\cyro }\IeC {\cyrn }\IeC {\cyrn }\IeC {\cyrery }\IeC {\cyre } \IeC {\cyrs }\IeC {\cyre }\IeC {\cyrt }\IeC {\cyri }}{9}}
\@writefile{toc}{\contentsline {section}{\numberline {1.1}\IeC {\CYRI }\IeC {\cyrs }\IeC {\cyrk }\IeC {\cyru }\IeC {\cyrs }\IeC {\cyrs }\IeC {\cyrt }\IeC {\cyrv }\IeC {\cyre }\IeC {\cyrn }\IeC {\cyrn }\IeC {\cyra }\IeC {\cyrya } \IeC {\cyrn }\IeC {\cyre }\IeC {\cyrishrt }\IeC {\cyrr }\IeC {\cyro }\IeC {\cyrn }\IeC {\cyrn }\IeC {\cyra }\IeC {\cyrya } \IeC {\cyrs }\IeC {\cyre }\IeC {\cyrt }\IeC {\cyrsftsn }}{9}}
\@writefile{lof}{\contentsline {figure}{\numberline {1}{\ignorespaces \IeC {\CYRM }\IeC {\cyro }\IeC {\cyrd }\IeC {\cyre }\IeC {\cyrl }\IeC {\cyrsftsn } \IeC {\cyrn }\IeC {\cyre }\IeC {\cyrishrt }\IeC {\cyrr }\IeC {\cyro }\IeC {\cyrn }\IeC {\cyra }}}{9}}
\newlabel{neuron}{{1}{9}}
\@writefile{toc}{\contentsline {section}{\numberline {1.2}\IeC {\CYRS }\IeC {\cyrv }\IeC {\cyre }\IeC {\cyrr }\IeC {\cyrt }\IeC {\cyro }\IeC {\cyrch }\IeC {\cyrn }\IeC {\cyra }\IeC {\cyrya } \IeC {\cyrn }\IeC {\cyre }\IeC {\cyrishrt }\IeC {\cyrr }\IeC {\cyro }\IeC {\cyrn }\IeC {\cyrn }\IeC {\cyra }\IeC {\cyrya } \IeC {\cyrs }\IeC {\cyre }\IeC {\cyrt }\IeC {\cyrsftsn }}{10}}
\@writefile{toc}{\contentsline {section}{\numberline {1.3}\IeC {\CYRK }\IeC {\cyro }\IeC {\cyrn }\IeC {\cyrv }\IeC {\cyro }\IeC {\cyrl }\IeC {\cyryu }\IeC {\cyrc }\IeC {\cyri }\IeC {\cyro }\IeC {\cyrn }\IeC {\cyrn }\IeC {\cyrery }\IeC {\cyre } \IeC {\cyrs }\IeC {\cyrl }\IeC {\cyro }\IeC {\cyri } (\IeC {\cyrs }\IeC {\cyrl }\IeC {\cyro }\IeC {\cyri } \IeC {\cyrs }\IeC {\cyrv }\IeC {\cyre }\IeC {\cyrr }\IeC {\cyrt }\IeC {\cyrk }\IeC {\cyri })}{11}}
\@writefile{lof}{\contentsline {figure}{\numberline {2}{\ignorespaces \IeC {\CYRO }\IeC {\cyrp }\IeC {\cyre }\IeC {\cyrr }\IeC {\cyra }\IeC {\cyrc }\IeC {\cyri }\IeC {\cyrya } \IeC {\cyrs }\IeC {\cyrv }\IeC {\cyre }\IeC {\cyrr }\IeC {\cyrt }\IeC {\cyrk }\IeC {\cyri } \IeC {\cyrs } \IeC {\cyri }\IeC {\cyrz }\IeC {\cyro }\IeC {\cyrb }\IeC {\cyrr }\IeC {\cyra }\IeC {\cyrzh }\IeC {\cyre }\IeC {\cyrn }\IeC {\cyri }\IeC {\cyre }\IeC {\cyrm } 7\IeC {\cyrh }7 \IeC {\cyri } \IeC {\cyrya }\IeC {\cyrd }\IeC {\cyrr }\IeC {\cyro }\IeC {\cyrm } \IeC {\cyrs }\IeC {\cyrv }\IeC {\cyre }\IeC {\cyrr }\IeC {\cyrt }\IeC {\cyrk }\IeC {\cyri } 3\IeC {\cyrh }3}}{12}}
\newlabel{conv}{{2}{12}}
\@writefile{toc}{\contentsline {section}{\numberline {1.4}\IeC {\CYRS }\IeC {\cyrl }\IeC {\cyro }\IeC {\cyri } \IeC {\cyrp }\IeC {\cyru }\IeC {\cyrl }\IeC {\cyrl }\IeC {\cyri }\IeC {\cyrn }\IeC {\cyrg }\IeC {\cyra }}{12}}
\@writefile{lof}{\contentsline {figure}{\numberline {3}{\ignorespaces \IeC {\CYRP }\IeC {\cyru }\IeC {\cyrl }\IeC {\cyrl }\IeC {\cyri }\IeC {\cyrn }\IeC {\cyrg } \IeC {\cyrs } \IeC {\cyrf }\IeC {\cyru }\IeC {\cyrn }\IeC {\cyrk }\IeC {\cyrc }\IeC {\cyri }\IeC {\cyre }\IeC {\cyrishrt } \IeC {\cyrm }\IeC {\cyra }\IeC {\cyrk }\IeC {\cyrs }\IeC {\cyri }\IeC {\cyrm }\IeC {\cyru }\IeC {\cyrm }\IeC {\cyra } \IeC {\cyri } \IeC {\cyrf }\IeC {\cyri }\IeC {\cyrl }\IeC {\cyrsftsn }\IeC {\cyrt }\IeC {\cyrr }\IeC {\cyro }\IeC {\cyrm } 2\IeC {\texttimes }2 \IeC {\cyrs } \IeC {\cyrsh }\IeC {\cyra }\IeC {\cyrg }\IeC {\cyro }\IeC {\cyrm } 2}}{12}}
\newlabel{pooling}{{3}{12}}
\citation{4}
\citation{3}
\@writefile{toc}{\contentsline {chapter}{\numberline {2}\IeC {\CYRO }\IeC {\cyrb }\IeC {\cyrz }\IeC {\cyro }\IeC {\cyrr } \IeC {\cyrt }\IeC {\cyre }\IeC {\cyrh }\IeC {\cyrn }\IeC {\cyro }\IeC {\cyrl }\IeC {\cyro }\IeC {\cyrg }\IeC {\cyri }\IeC {\cyrishrt } \IeC {\cyri } \IeC {\cyrf }\IeC {\cyrr }\IeC {\cyre }\IeC {\cyrishrt }\IeC {\cyrm }\IeC {\cyrv }\IeC {\cyro }\IeC {\cyrr }\IeC {\cyrk }\IeC {\cyro }\IeC {\cyrv }}{14}}
\@writefile{toc}{\contentsline {section}{\numberline {2.1}\IeC {\CYRO }\IeC {\cyrb }\IeC {\cyrz }\IeC {\cyro }\IeC {\cyrr } \IeC {\cyrs }\IeC {\cyru }\IeC {\cyrshch }\IeC {\cyre }\IeC {\cyrs }\IeC {\cyrt }\IeC {\cyrv }\IeC {\cyru }\IeC {\cyryu }\IeC {\cyrshch }\IeC {\cyri }\IeC {\cyrh } \IeC {\cyrf }\IeC {\cyrr }\IeC {\cyre }\IeC {\cyrishrt }\IeC {\cyrm }\IeC {\cyrv }\IeC {\cyro }\IeC {\cyrr }\IeC {\cyrk }\IeC {\cyro }\IeC {\cyrv } \IeC {\CYRS }\IeC {\CYRN }\IeC {\CYRS }}{14}}
\@writefile{toc}{\contentsline {subsection}{\numberline {2.1.1}Python-\IeC {\cyrf }\IeC {\cyrr }\IeC {\cyre }\IeC {\cyrishrt }\IeC {\cyrm }\IeC {\cyrv }\IeC {\cyro }\IeC {\cyrr }\IeC {\cyrk } Faster R-CNN}{14}}
\@writefile{toc}{\contentsline {subsection}{\numberline {2.1.2}C-\IeC {\cyrf }\IeC {\cyrr }\IeC {\cyre }\IeC {\cyrishrt }\IeC {\cyrm }\IeC {\cyrv }\IeC {\cyro }\IeC {\cyrr }\IeC {\cyrk } darknet}{14}}
\citation{4}
\@writefile{toc}{\contentsline {subsection}{\numberline {2.1.3}\IeC {\CYRF }\IeC {\cyrr }\IeC {\cyre }\IeC {\cyrishrt }\IeC {\cyrm }\IeC {\cyrv }\IeC {\cyro }\IeC {\cyrr }\IeC {\cyrk } TensorFlow \IeC {\cyro }\IeC {\cyrt } Google}{15}}
\@writefile{toc}{\contentsline {section}{\numberline {2.2}\IeC {\CYRI }\IeC {\cyrs }\IeC {\cyrp }\IeC {\cyro }\IeC {\cyrl }\IeC {\cyrsftsn }\IeC {\cyrz }\IeC {\cyru }\IeC {\cyre }\IeC {\cyrm }\IeC {\cyrery }\IeC {\cyre } \IeC {\cyra }\IeC {\cyrr }\IeC {\cyrh }\IeC {\cyri }\IeC {\cyrt }\IeC {\cyre }\IeC {\cyrk }\IeC {\cyrt }\IeC {\cyru }\IeC {\cyrr }\IeC {\cyrery } \IeC {\cyrs }\IeC {\cyrv }\IeC {\cyre }\IeC {\cyrr }\IeC {\cyrt }\IeC {\cyro }\IeC {\cyrch }\IeC {\cyrn }\IeC {\cyrery }\IeC {\cyrh } \IeC {\cyrn }\IeC {\cyre }\IeC {\cyrishrt }\IeC {\cyrr }\IeC {\cyro }\IeC {\cyrn }\IeC {\cyrn }\IeC {\cyrery }\IeC {\cyrh } \IeC {\cyrs }\IeC {\cyre }\IeC {\cyrt }\IeC {\cyre }\IeC {\cyrishrt }}{15}}
\@writefile{toc}{\contentsline {subsection}{\numberline {2.2.1}\IeC {\CYRA }\IeC {\cyrr }\IeC {\cyrh }\IeC {\cyri }\IeC {\cyrt }\IeC {\cyre }\IeC {\cyrk }\IeC {\cyrt }\IeC {\cyru }\IeC {\cyrr }\IeC {\cyra } \IeC {\guillemotleft }YOLO\IeC {\guillemotright }}{15}}
\citation{5}
\@writefile{lof}{\contentsline {figure}{\numberline {4}{\ignorespaces \IeC {\CYRR }\IeC {\cyra }\IeC {\cyrb }\IeC {\cyro }\IeC {\cyrt }\IeC {\cyra } \IeC {\cyra }\IeC {\cyrr }\IeC {\cyrh }\IeC {\cyri }\IeC {\cyrt }\IeC {\cyre }\IeC {\cyrk }\IeC {\cyrt }\IeC {\cyru }\IeC {\cyrr }\IeC {\cyrery } \IeC {\guillemotleft }YOLO\IeC {\guillemotright }}}{16}}
\newlabel{yolo}{{4}{16}}
\@writefile{lof}{\contentsline {figure}{\numberline {5}{\ignorespaces \IeC {\CYRM }\IeC {\cyro }\IeC {\cyrd }\IeC {\cyre }\IeC {\cyrl }\IeC {\cyrsftsn } \IeC {\guillemotleft }YOLO\IeC {\guillemotright }}}{16}}
\newlabel{yolo_arc}{{5}{16}}
\@writefile{toc}{\contentsline {subsection}{\numberline {2.2.2}\IeC {\CYRA }\IeC {\cyrr }\IeC {\cyrh }\IeC {\cyri }\IeC {\cyrt }\IeC {\cyre }\IeC {\cyrk }\IeC {\cyrt }\IeC {\cyru }\IeC {\cyrr }\IeC {\cyra } \IeC {\guillemotleft }AlexNet\IeC {\guillemotright }}{17}}
\@writefile{lof}{\contentsline {figure}{\numberline {6}{\ignorespaces \IeC {\CYRM }\IeC {\cyro }\IeC {\cyrd }\IeC {\cyre }\IeC {\cyrl }\IeC {\cyrsftsn } \IeC {\guillemotleft }AlexNet\IeC {\guillemotright }}}{17}}
\newlabel{alexnet}{{6}{17}}
\@writefile{toc}{\contentsline {subsection}{\numberline {2.2.3}\IeC {\CYRA }\IeC {\cyrr }\IeC {\cyrh }\IeC {\cyri }\IeC {\cyrt }\IeC {\cyre }\IeC {\cyrk }\IeC {\cyrt }\IeC {\cyru }\IeC {\cyrr }\IeC {\cyra } \IeC {\guillemotleft }VGG-16\IeC {\guillemotright }}{17}}
\@writefile{lof}{\contentsline {figure}{\numberline {7}{\ignorespaces \IeC {\CYRM }\IeC {\cyro }\IeC {\cyrd }\IeC {\cyre }\IeC {\cyrl }\IeC {\cyrsftsn } \IeC {\guillemotleft }VGG-16\IeC {\guillemotright }}}{17}}
\newlabel{vgg}{{7}{17}}
\@writefile{toc}{\contentsline {section}{\numberline {2.3}\IeC {\CYRCH }\IeC {\cyri }\IeC {\cyrs }\IeC {\cyrl }\IeC {\cyro } \IeC {\cyrs } \IeC {\cyrf }\IeC {\cyri }\IeC {\cyrk }\IeC {\cyrs }\IeC {\cyri }\IeC {\cyrr }\IeC {\cyro }\IeC {\cyrv }\IeC {\cyra }\IeC {\cyrn }\IeC {\cyrn }\IeC {\cyro }\IeC {\cyrishrt } \IeC {\cyrt }\IeC {\cyro }\IeC {\cyrch }\IeC {\cyrk }\IeC {\cyro }\IeC {\cyrishrt }}{18}}
\@writefile{toc}{\contentsline {section}{\numberline {2.4}\IeC {\CYRV }\IeC {\cyrery }\IeC {\cyrv }\IeC {\cyro }\IeC {\cyrd }\IeC {\cyrery }}{18}}
\@writefile{toc}{\contentsline {chapter}{\numberline {3}\IeC {\CYRR }\IeC {\cyre }\IeC {\cyra }\IeC {\cyrl }\IeC {\cyri }\IeC {\cyrz }\IeC {\cyra }\IeC {\cyrc }\IeC {\cyri }\IeC {\cyrya } \IeC {\CYRS }\IeC {\CYRN }\IeC {\CYRS } \IeC {\cyrs } \IeC {\cyrc }\IeC {\cyre }\IeC {\cyrl }\IeC {\cyro }\IeC {\cyrch }\IeC {\cyri }\IeC {\cyrs }\IeC {\cyrl }\IeC {\cyre }\IeC {\cyrn }\IeC {\cyrn }\IeC {\cyro }\IeC {\cyrishrt } \IeC {\cyra }\IeC {\cyrr }\IeC {\cyri }\IeC {\cyrf }\IeC {\cyrm }\IeC {\cyre }\IeC {\cyrt }\IeC {\cyri }\IeC {\cyrk }\IeC {\cyro }\IeC {\cyrishrt }}{19}}
\@writefile{toc}{\contentsline {section}{\numberline {3.1}\IeC {\CYRA }\IeC {\cyrr }\IeC {\cyri }\IeC {\cyrf }\IeC {\cyrm }\IeC {\cyre }\IeC {\cyrt }\IeC {\cyri }\IeC {\cyrk }\IeC {\cyra } \IeC {\cyrs } \IeC {\cyrf }\IeC {\cyri }\IeC {\cyrk }\IeC {\cyrs }\IeC {\cyri }\IeC {\cyrr }\IeC {\cyro }\IeC {\cyrv }\IeC {\cyra }\IeC {\cyrn }\IeC {\cyrn }\IeC {\cyro }\IeC {\cyrishrt } \IeC {\cyrt }\IeC {\cyro }\IeC {\cyrch }\IeC {\cyrk }\IeC {\cyro }\IeC {\cyrishrt }}{19}}
\@writefile{toc}{\contentsline {subsection}{\numberline {3.1.1}\IeC {\CYRP }\IeC {\cyrr }\IeC {\cyre }\IeC {\cyro }\IeC {\cyrb }\IeC {\cyrr }\IeC {\cyra }\IeC {\cyrz }\IeC {\cyro }\IeC {\cyrv }\IeC {\cyra }\IeC {\cyrn }\IeC {\cyri }\IeC {\cyre }}{20}}
\@writefile{toc}{\contentsline {subsection}{\numberline {3.1.2}\IeC {\CYRO }\IeC {\cyrp }\IeC {\cyre }\IeC {\cyrr }\IeC {\cyra }\IeC {\cyrc }\IeC {\cyri }\IeC {\cyrya } \IeC {\cyrs }\IeC {\cyrl }\IeC {\cyro }\IeC {\cyrzh }\IeC {\cyre }\IeC {\cyrn }\IeC {\cyri }\IeC {\cyrya }}{21}}
\@writefile{toc}{\contentsline {subsection}{\numberline {3.1.3}\IeC {\CYRO }\IeC {\cyrp }\IeC {\cyre }\IeC {\cyrr }\IeC {\cyra }\IeC {\cyrc }\IeC {\cyri }\IeC {\cyrya } \IeC {\cyrv }\IeC {\cyrery }\IeC {\cyrch }\IeC {\cyri }\IeC {\cyrt }\IeC {\cyra }\IeC {\cyrn }\IeC {\cyri }\IeC {\cyrya }}{21}}
\@writefile{toc}{\contentsline {subsection}{\numberline {3.1.4}\IeC {\CYRO }\IeC {\cyrp }\IeC {\cyre }\IeC {\cyrr }\IeC {\cyra }\IeC {\cyrc }\IeC {\cyri }\IeC {\cyrya } \IeC {\cyru }\IeC {\cyrm }\IeC {\cyrn }\IeC {\cyro }\IeC {\cyrzh }\IeC {\cyre }\IeC {\cyrn }\IeC {\cyri }\IeC {\cyrya }}{22}}
\@writefile{lof}{\contentsline {figure}{\numberline {8}{\ignorespaces \IeC {\CYRA }\IeC {\cyrl }\IeC {\cyrg }\IeC {\cyro }\IeC {\cyrr }\IeC {\cyri }\IeC {\cyrt }\IeC {\cyrm } \IeC {\cyru }\IeC {\cyrm }\IeC {\cyrn }\IeC {\cyro }\IeC {\cyrzh }\IeC {\cyre }\IeC {\cyrn }\IeC {\cyri }\IeC {\cyrya }}}{22}}
\newlabel{mul}{{8}{22}}
\@writefile{toc}{\contentsline {subsection}{\numberline {3.1.5}\IeC {\CYRO }\IeC {\cyrp }\IeC {\cyre }\IeC {\cyrr }\IeC {\cyra }\IeC {\cyrc }\IeC {\cyri }\IeC {\cyrya } \IeC {\cyrd }\IeC {\cyre }\IeC {\cyrl }\IeC {\cyre }\IeC {\cyrn }\IeC {\cyri }\IeC {\cyrya }}{24}}
\@writefile{lof}{\contentsline {figure}{\numberline {9}{\ignorespaces \IeC {\CYRA }\IeC {\cyrl }\IeC {\cyrg }\IeC {\cyro }\IeC {\cyrr }\IeC {\cyri }\IeC {\cyrt }\IeC {\cyrm } \IeC {\cyrd }\IeC {\cyre }\IeC {\cyrl }\IeC {\cyre }\IeC {\cyrn }\IeC {\cyri }\IeC {\cyrya }}}{24}}
\newlabel{div}{{9}{24}}
\citation{8}
\@writefile{toc}{\contentsline {subsection}{\numberline {3.1.6}\IeC {\CYRF }\IeC {\cyru }\IeC {\cyrn }\IeC {\cyrk }\IeC {\cyrc }\IeC {\cyri }\IeC {\cyrya } \IeC {\cyrk }\IeC {\cyrv }\IeC {\cyra }\IeC {\cyrd }\IeC {\cyrr }\IeC {\cyra }\IeC {\cyrt }\IeC {\cyrn }\IeC {\cyro }\IeC {\cyrg }\IeC {\cyro } \IeC {\cyrk }\IeC {\cyro }\IeC {\cyrr }\IeC {\cyrn }\IeC {\cyrya }}{25}}
\@writefile{lof}{\contentsline {figure}{\numberline {10}{\ignorespaces \IeC {\CYRA }\IeC {\cyrl }\IeC {\cyrg }\IeC {\cyro }\IeC {\cyrr }\IeC {\cyri }\IeC {\cyrt }\IeC {\cyrm } \IeC {\cyrv }\IeC {\cyrery }\IeC {\cyrch }\IeC {\cyri }\IeC {\cyrs }\IeC {\cyrl }\IeC {\cyre }\IeC {\cyrn }\IeC {\cyri }\IeC {\cyrya } \IeC {\cyrk }\IeC {\cyrv }\IeC {\cyra }\IeC {\cyrd }\IeC {\cyrr }\IeC {\cyra }\IeC {\cyrt }\IeC {\cyrn }\IeC {\cyro }\IeC {\cyrg }\IeC {\cyro } \IeC {\cyrk }\IeC {\cyro }\IeC {\cyrr }\IeC {\cyrn }\IeC {\cyrya }}}{25}}
\newlabel{sqrt}{{10}{25}}
\@writefile{toc}{\contentsline {subsection}{\numberline {3.1.7}\IeC {\CYRS }\IeC {\cyrp }\IeC {\cyre }\IeC {\cyrc }\IeC {\cyri }\IeC {\cyra }\IeC {\cyrl }\IeC {\cyrsftsn }\IeC {\cyrn }\IeC {\cyrery }\IeC {\cyre } \IeC {\cyrv }\IeC {\cyro }\IeC {\cyrz }\IeC {\cyrm }\IeC {\cyro }\IeC {\cyrzh }\IeC {\cyrn }\IeC {\cyro }\IeC {\cyrs }\IeC {\cyrt }\IeC {\cyri }}{26}}
\@writefile{toc}{\contentsline {section}{\numberline {3.2}\IeC {\CYRR }\IeC {\cyre }\IeC {\cyra }\IeC {\cyrl }\IeC {\cyri }\IeC {\cyrz }\IeC {\cyra }\IeC {\cyrc }\IeC {\cyri }\IeC {\cyrya } \IeC {\cyrf }\IeC {\cyru }\IeC {\cyrn }\IeC {\cyrk }\IeC {\cyrc }\IeC {\cyri }\IeC {\cyri } \IeC {\cyrz }\IeC {\cyra }\IeC {\cyrp }\IeC {\cyru }\IeC {\cyrs }\IeC {\cyrk }\IeC {\cyra } \IeC {\cyrp }\IeC {\cyrr }\IeC {\cyrya }\IeC {\cyrm }\IeC {\cyro }\IeC {\cyrg }\IeC {\cyro } \IeC {\cyrp }\IeC {\cyrr }\IeC {\cyro }\IeC {\cyrh }\IeC {\cyro }\IeC {\cyrd }\IeC {\cyra }}{26}}
\@writefile{toc}{\contentsline {subsection}{\numberline {3.2.1}\IeC {\CYRZ }\IeC {\cyra }\IeC {\cyrg }\IeC {\cyrr }\IeC {\cyru }\IeC {\cyrz }\IeC {\cyrk }\IeC {\cyra } \IeC {\cyrs }\IeC {\cyre }\IeC {\cyrk }\IeC {\cyrc }\IeC {\cyri }\IeC {\cyrishrt } \IeC {\cyrn }\IeC {\cyra }\IeC {\cyrs }\IeC {\cyrt }\IeC {\cyrr }\IeC {\cyro }\IeC {\cyre }\IeC {\cyrk }}{26}}
\@writefile{lof}{\contentsline {figure}{\numberline {11}{\ignorespaces \IeC {\CYRA }\IeC {\cyrl }\IeC {\cyrg }\IeC {\cyro }\IeC {\cyrr }\IeC {\cyri }\IeC {\cyrt }\IeC {\cyrm } \IeC {\cyrz }\IeC {\cyra }\IeC {\cyrg }\IeC {\cyrr }\IeC {\cyru }\IeC {\cyrz }\IeC {\cyrk }\IeC {\cyri } \IeC {\cyrk }\IeC {\cyro }\IeC {\cyrn }\IeC {\cyrf }\IeC {\cyri }\IeC {\cyrg }\IeC {\cyru }\IeC {\cyrr }\IeC {\cyra }\IeC {\cyrc }\IeC {\cyri }\IeC {\cyri } \IeC {\cyrn }\IeC {\cyre }\IeC {\cyrishrt }\IeC {\cyrr }\IeC {\cyro }\IeC {\cyrn }\IeC {\cyrn }\IeC {\cyro }\IeC {\cyrishrt } \IeC {\cyrs }\IeC {\cyre }\IeC {\cyrt }\IeC {\cyri }}}{27}}
\newlabel{cfg_load}{{11}{27}}
\@writefile{toc}{\contentsline {subsection}{\numberline {3.2.2}\IeC {\CYRN }\IeC {\cyra }\IeC {\cyrs }\IeC {\cyrt }\IeC {\cyrr }\IeC {\cyro }\IeC {\cyrishrt }\IeC {\cyrk }\IeC {\cyra } \IeC {\cyrp }\IeC {\cyra }\IeC {\cyrr }\IeC {\cyra }\IeC {\cyrm }\IeC {\cyre }\IeC {\cyrt }\IeC {\cyrr }\IeC {\cyro }\IeC {\cyrv } \IeC {\cyrn }\IeC {\cyre }\IeC {\cyrishrt }\IeC {\cyrr }\IeC {\cyro }\IeC {\cyrn }\IeC {\cyrn }\IeC {\cyro }\IeC {\cyrishrt } \IeC {\cyrs }\IeC {\cyre }\IeC {\cyrt }\IeC {\cyri }}{27}}
\@writefile{toc}{\contentsline {subsection}{\numberline {3.2.3}\IeC {\CYRZ }\IeC {\cyra }\IeC {\cyrg }\IeC {\cyrr }\IeC {\cyru }\IeC {\cyrz }\IeC {\cyrk }\IeC {\cyra } \IeC {\cyri } \IeC {\cyrn }\IeC {\cyra }\IeC {\cyrs }\IeC {\cyrt }\IeC {\cyrr }\IeC {\cyro }\IeC {\cyrishrt }\IeC {\cyrk }\IeC {\cyra } \IeC {\cyrp }\IeC {\cyra }\IeC {\cyrr }\IeC {\cyra }\IeC {\cyrm }\IeC {\cyre }\IeC {\cyrt }\IeC {\cyrr }\IeC {\cyro }\IeC {\cyrv } \IeC {\cyrs }\IeC {\cyrl }\IeC {\cyro }\IeC {\cyre }\IeC {\cyrv }}{28}}
\gdef \LT@i {\LT@entry 
    {4}{108.77592pt}\LT@entry 
    {4}{193.98373pt}\LT@entry 
    {1}{162.2462pt}}
\gdef \LT@ii {\LT@entry 
    {1}{72.35835pt}\LT@entry 
    {4}{187.6334pt}\LT@entry 
    {1}{162.2462pt}}
\gdef \LT@iii {\LT@entry 
    {1}{72.35835pt}\LT@entry 
    {4}{105.3951pt}\LT@entry 
    {1}{162.2462pt}}
\@writefile{toc}{\contentsline {subsection}{\numberline {3.2.4}\IeC {\CYRZ }\IeC {\cyra }\IeC {\cyrg }\IeC {\cyrr }\IeC {\cyru }\IeC {\cyrz }\IeC {\cyrk }\IeC {\cyra } \IeC {\cyrv }\IeC {\cyre }\IeC {\cyrs }\IeC {\cyro }\IeC {\cyrv }\IeC {\cyrery }\IeC {\cyrh } \IeC {\cyrk }\IeC {\cyro }\IeC {\cyrerev }\IeC {\cyrf }\IeC {\cyrf }\IeC {\cyri }\IeC {\cyrc }\IeC {\cyri }\IeC {\cyre }\IeC {\cyrn }\IeC {\cyrt }\IeC {\cyro }\IeC {\cyrv }}{29}}
\@writefile{toc}{\contentsline {subsection}{\numberline {3.2.5}\IeC {\CYRZ }\IeC {\cyra }\IeC {\cyrg }\IeC {\cyrr }\IeC {\cyru }\IeC {\cyrz }\IeC {\cyrk }\IeC {\cyra } \IeC {\cyrm }\IeC {\cyre }\IeC {\cyrt }\IeC {\cyro }\IeC {\cyrk } \IeC {\cyro }\IeC {\cyrb }\IeC {\cyrhrdsn }\IeC {\cyre }\IeC {\cyrk }\IeC {\cyrt }\IeC {\cyro }\IeC {\cyrv }}{30}}
\@writefile{toc}{\contentsline {subsection}{\numberline {3.2.6}\IeC {\CYRZ }\IeC {\cyra }\IeC {\cyrg }\IeC {\cyrr }\IeC {\cyru }\IeC {\cyrz }\IeC {\cyrk }\IeC {\cyra } \IeC {\cyri }\IeC {\cyrz }\IeC {\cyro }\IeC {\cyrb }\IeC {\cyrr }\IeC {\cyra }\IeC {\cyrzh }\IeC {\cyre }\IeC {\cyrn }\IeC {\cyri }\IeC {\cyrishrt } \IeC {\cyra }\IeC {\cyrl }\IeC {\cyrf }\IeC {\cyra }\IeC {\cyrv }\IeC {\cyri }\IeC {\cyrt }\IeC {\cyra }}{30}}
\@writefile{toc}{\contentsline {subsection}{\numberline {3.2.7}\IeC {\CYRZ }\IeC {\cyra }\IeC {\cyrg }\IeC {\cyrr }\IeC {\cyru }\IeC {\cyrz }\IeC {\cyrk }\IeC {\cyra } \IeC {\cyri } \IeC {\cyro }\IeC {\cyrb }\IeC {\cyrr }\IeC {\cyra }\IeC {\cyrb }\IeC {\cyro }\IeC {\cyrt }\IeC {\cyrk }\IeC {\cyra } \IeC {\cyri }\IeC {\cyrz }\IeC {\cyro }\IeC {\cyrb }\IeC {\cyrr }\IeC {\cyra }\IeC {\cyrzh }\IeC {\cyre }\IeC {\cyrn }\IeC {\cyri }\IeC {\cyrya }}{30}}
\@writefile{lof}{\contentsline {figure}{\numberline {12}{\ignorespaces \IeC {\CYRO }\IeC {\cyrr }\IeC {\cyri }\IeC {\cyrg }\IeC {\cyri }\IeC {\cyrn }\IeC {\cyra }\IeC {\cyrl }\IeC {\cyrsftsn }\IeC {\cyrn }\IeC {\cyro }\IeC {\cyre } \IeC {\cyri }\IeC {\cyrz }\IeC {\cyro }\IeC {\cyrb }\IeC {\cyrr }\IeC {\cyra }\IeC {\cyrzh }\IeC {\cyre }\IeC {\cyrn }\IeC {\cyri }\IeC {\cyre }}}{31}}
\newlabel{original}{{12}{31}}
\@writefile{lof}{\contentsline {figure}{\numberline {13}{\ignorespaces \IeC {\CYRI }\IeC {\cyrz }\IeC {\cyro }\IeC {\cyrb }\IeC {\cyrr }\IeC {\cyra }\IeC {\cyrzh }\IeC {\cyre }\IeC {\cyrn }\IeC {\cyri }\IeC {\cyre } \IeC {\cyrp }\IeC {\cyro }\IeC {\cyrs }\IeC {\cyrl }\IeC {\cyre } \IeC {\cyro }\IeC {\cyrb }\IeC {\cyrr }\IeC {\cyra }\IeC {\cyrb }\IeC {\cyro }\IeC {\cyrt }\IeC {\cyrk }\IeC {\cyri }}}{31}}
\newlabel{dog_after}{{13}{31}}
\@writefile{lof}{\contentsline {figure}{\numberline {14}{\ignorespaces \IeC {\CYRA }\IeC {\cyrl }\IeC {\cyrg }\IeC {\cyro }\IeC {\cyrr }\IeC {\cyri }\IeC {\cyrt }\IeC {\cyrm } \IeC {\cyrz }\IeC {\cyra }\IeC {\cyrg }\IeC {\cyrr }\IeC {\cyru }\IeC {\cyrz }\IeC {\cyrk }\IeC {\cyri } \IeC {\cyri } \IeC {\cyro }\IeC {\cyrb }\IeC {\cyrr }\IeC {\cyra }\IeC {\cyrb }\IeC {\cyro }\IeC {\cyrt }\IeC {\cyrk }\IeC {\cyri } \IeC {\cyri }\IeC {\cyrz }\IeC {\cyro }\IeC {\cyrb }\IeC {\cyrr }\IeC {\cyra }\IeC {\cyrzh }\IeC {\cyre }\IeC {\cyrn }\IeC {\cyri }\IeC {\cyrya }}}{32}}
\newlabel{image_load}{{14}{32}}
\@writefile{toc}{\contentsline {subsection}{\numberline {3.2.8}\IeC {\CYRZ }\IeC {\cyra }\IeC {\cyrp }\IeC {\cyru }\IeC {\cyrs }\IeC {\cyrk } \IeC {\cyrn }\IeC {\cyre }\IeC {\cyrishrt }\IeC {\cyrr }\IeC {\cyro }\IeC {\cyrn }\IeC {\cyrn }\IeC {\cyro }\IeC {\cyrishrt } \IeC {\cyrs }\IeC {\cyre }\IeC {\cyrt }\IeC {\cyri }}{32}}
\@writefile{toc}{\contentsline {section}{\numberline {3.3}\IeC {\CYRF }\IeC {\cyru }\IeC {\cyrn }\IeC {\cyrk }\IeC {\cyrc }\IeC {\cyri }\IeC {\cyri } \IeC {\cyrs }\IeC {\cyro }\IeC {\cyrz }\IeC {\cyrd }\IeC {\cyra }\IeC {\cyrn }\IeC {\cyri }\IeC {\cyrya } \IeC {\cyrs }\IeC {\cyrl }\IeC {\cyro }\IeC {\cyre }\IeC {\cyrv }}{33}}
\@writefile{toc}{\contentsline {section}{\numberline {3.4}\IeC {\CYRF }\IeC {\cyru }\IeC {\cyrn }\IeC {\cyrk }\IeC {\cyrc }\IeC {\cyri }\IeC {\cyrya } \IeC {\cyrp }\IeC {\cyrr }\IeC {\cyrya }\IeC {\cyrm }\IeC {\cyro }\IeC {\cyrg }\IeC {\cyro } \IeC {\cyrp }\IeC {\cyrr }\IeC {\cyro }\IeC {\cyrh }\IeC {\cyro }\IeC {\cyrd }\IeC {\cyra } \IeC {\cyrs }\IeC {\cyrl }\IeC {\cyro }\IeC {\cyrya } \IeC {\cyrs }\IeC {\cyrv }\IeC {\cyre }\IeC {\cyrr }\IeC {\cyrt }\IeC {\cyrk }\IeC {\cyri }}{33}}
\@writefile{toc}{\contentsline {section}{\numberline {3.5}\IeC {\CYRF }\IeC {\cyru }\IeC {\cyrn }\IeC {\cyrk }\IeC {\cyrc }\IeC {\cyri }\IeC {\cyrya } \IeC {\cyrp }\IeC {\cyrr }\IeC {\cyrya }\IeC {\cyrm }\IeC {\cyro }\IeC {\cyrg }\IeC {\cyro } \IeC {\cyrp }\IeC {\cyrr }\IeC {\cyro }\IeC {\cyrh }\IeC {\cyro }\IeC {\cyrd }\IeC {\cyra } \IeC {\cyrs }\IeC {\cyrl }\IeC {\cyro }\IeC {\cyrya } \IeC {\cyrp }\IeC {\cyru }\IeC {\cyrl }\IeC {\cyrl }\IeC {\cyri }\IeC {\cyrn }\IeC {\cyrg }\IeC {\cyra }}{34}}
\@writefile{toc}{\contentsline {section}{\numberline {3.6}\IeC {\CYRP }\IeC {\cyro }\IeC {\cyrl }\IeC {\cyru }\IeC {\cyrch }\IeC {\cyre }\IeC {\cyrn }\IeC {\cyri }\IeC {\cyre } \IeC {\cyrr }\IeC {\cyre }\IeC {\cyrz }\IeC {\cyru }\IeC {\cyrl }\IeC {\cyrsftsn }\IeC {\cyrt }\IeC {\cyra }\IeC {\cyrt }\IeC {\cyro }\IeC {\cyrv }}{34}}
\@writefile{toc}{\contentsline {subsection}{\numberline {3.6.1}\IeC {\CYRO }\IeC {\cyrt }\IeC {\cyrr }\IeC {\cyri }\IeC {\cyrs }\IeC {\cyro }\IeC {\cyrv }\IeC {\cyrk }\IeC {\cyra } \IeC {\cyrn }\IeC {\cyra }\IeC {\cyrishrt }\IeC {\cyrd }\IeC {\cyre }\IeC {\cyrn }\IeC {\cyrn }\IeC {\cyrery }\IeC {\cyrh } \IeC {\cyro }\IeC {\cyrb }\IeC {\cyrhrdsn }\IeC {\cyre }\IeC {\cyrk }\IeC {\cyrt }\IeC {\cyro }\IeC {\cyrv }}{34}}
\@writefile{toc}{\contentsline {subsection}{\numberline {3.6.2}\IeC {\CYRS }\IeC {\cyro }\IeC {\cyrh }\IeC {\cyrr }\IeC {\cyra }\IeC {\cyrn }\IeC {\cyre }\IeC {\cyrn }\IeC {\cyri }\IeC {\cyre } \IeC {\cyri }\IeC {\cyrz }\IeC {\cyro }\IeC {\cyrb }\IeC {\cyrr }\IeC {\cyra }\IeC {\cyrzh }\IeC {\cyre }\IeC {\cyrn }\IeC {\cyri }\IeC {\cyrya }}{35}}
\@writefile{lof}{\contentsline {figure}{\numberline {15}{\ignorespaces \IeC {\CYRA }\IeC {\cyrl }\IeC {\cyrg }\IeC {\cyro }\IeC {\cyrr }\IeC {\cyri }\IeC {\cyrt }\IeC {\cyrm } \IeC {\cyrz }\IeC {\cyra }\IeC {\cyrg }\IeC {\cyrr }\IeC {\cyru }\IeC {\cyrz }\IeC {\cyrk }\IeC {\cyri } \IeC {\cyri } \IeC {\cyro }\IeC {\cyrb }\IeC {\cyrr }\IeC {\cyra }\IeC {\cyrb }\IeC {\cyro }\IeC {\cyrt }\IeC {\cyrk }\IeC {\cyri } \IeC {\cyri }\IeC {\cyrz }\IeC {\cyro }\IeC {\cyrb }\IeC {\cyrr }\IeC {\cyra }\IeC {\cyrzh }\IeC {\cyre }\IeC {\cyrn }\IeC {\cyri }\IeC {\cyrya }}}{35}}
\newlabel{predictions}{{15}{35}}
\@writefile{lof}{\contentsline {figure}{\numberline {16}{\ignorespaces \IeC {\CYRA }\IeC {\cyrl }\IeC {\cyrg }\IeC {\cyro }\IeC {\cyrr }\IeC {\cyri }\IeC {\cyrt }\IeC {\cyrm } \IeC {\cyrr }\IeC {\cyra }\IeC {\cyrb }\IeC {\cyro }\IeC {\cyrt }\IeC {\cyrery } \IeC {\cyrp }\IeC {\cyrr }\IeC {\cyrya }\IeC {\cyrm }\IeC {\cyro }\IeC {\cyrg }\IeC {\cyro } \IeC {\cyrp }\IeC {\cyrr }\IeC {\cyro }\IeC {\cyrh }\IeC {\cyro }\IeC {\cyrd }\IeC {\cyra }}}{36}}
\newlabel{activity}{{16}{36}}
\gdef \LT@iv {\LT@entry 
    {1}{76.05907pt}\LT@entry 
    {4}{87.91354pt}\LT@entry 
    {4}{87.91354pt}\LT@entry 
    {4}{95.11354pt}\LT@entry 
    {4}{88.70554pt}}
\@writefile{toc}{\contentsline {section}{\numberline {3.7}\IeC {\CYRV }\IeC {\cyrery }\IeC {\cyrv }\IeC {\cyro }\IeC {\cyrd }\IeC {\cyrery }}{37}}
\@writefile{lof}{\contentsline {figure}{\numberline {17}{\ignorespaces \IeC {\CYRR }\IeC {\cyre }\IeC {\cyrz }\IeC {\cyru }\IeC {\cyrl }\IeC {\cyrsftsn }\IeC {\cyrt }\IeC {\cyra }\IeC {\cyrt } \IeC {\cyrr }\IeC {\cyra }\IeC {\cyrb }\IeC {\cyro }\IeC {\cyrt }\IeC {\cyrery } \IeC {\cyrn }\IeC {\cyre }\IeC {\cyrishrt }\IeC {\cyrr }\IeC {\cyro }\IeC {\cyrn }\IeC {\cyrn }\IeC {\cyro }\IeC {\cyrishrt } \IeC {\cyrs }\IeC {\cyre }\IeC {\cyrt }\IeC {\cyri }}}{37}}
\newlabel{test1}{{17}{37}}
\gdef \LT@v {\LT@entry 
    {1}{76.05907pt}\LT@entry 
    {4}{87.91354pt}\LT@entry 
    {4}{87.91354pt}\LT@entry 
    {4}{95.11354pt}\LT@entry 
    {4}{116.2239pt}}
\@writefile{lof}{\contentsline {figure}{\numberline {18}{\ignorespaces \IeC {\CYRR }\IeC {\cyre }\IeC {\cyrz }\IeC {\cyru }\IeC {\cyrl }\IeC {\cyrsftsn }\IeC {\cyrt }\IeC {\cyra }\IeC {\cyrt } \IeC {\cyrr }\IeC {\cyra }\IeC {\cyrb }\IeC {\cyro }\IeC {\cyrt }\IeC {\cyrery } \IeC {\cyrn }\IeC {\cyre }\IeC {\cyrishrt }\IeC {\cyrr }\IeC {\cyro }\IeC {\cyrn }\IeC {\cyrn }\IeC {\cyro }\IeC {\cyrishrt } \IeC {\cyrs }\IeC {\cyre }\IeC {\cyrt }\IeC {\cyri } \IeC {\cyrs } \IeC {\cyrv }\IeC {\cyre }\IeC {\cyrshch }\IeC {\cyre }\IeC {\cyrs }\IeC {\cyrt }\IeC {\cyrv }\IeC {\cyre }\IeC {\cyrn }\IeC {\cyrn }\IeC {\cyro }\IeC {\cyrishrt } \IeC {\cyra }\IeC {\cyrr }\IeC {\cyri }\IeC {\cyrf }\IeC {\cyrm }\IeC {\cyre }\IeC {\cyrt }\IeC {\cyri }\IeC {\cyrk }\IeC {\cyro }\IeC {\cyrishrt }}}{39}}
\newlabel{test2fl}{{18}{39}}
\@writefile{lof}{\contentsline {figure}{\numberline {19}{\ignorespaces \IeC {\CYRR }\IeC {\cyre }\IeC {\cyrz }\IeC {\cyru }\IeC {\cyrl }\IeC {\cyrsftsn }\IeC {\cyrt }\IeC {\cyra }\IeC {\cyrt } \IeC {\cyrr }\IeC {\cyra }\IeC {\cyrb }\IeC {\cyro }\IeC {\cyrt }\IeC {\cyrery } \IeC {\cyrn }\IeC {\cyre }\IeC {\cyrishrt }\IeC {\cyrr }\IeC {\cyro }\IeC {\cyrn }\IeC {\cyrn }\IeC {\cyro }\IeC {\cyrishrt } \IeC {\cyrs }\IeC {\cyre }\IeC {\cyrt }\IeC {\cyri } \IeC {\cyrs } \IeC {\cyrc }\IeC {\cyre }\IeC {\cyrl }\IeC {\cyro }\IeC {\cyrch }\IeC {\cyri }\IeC {\cyrs }\IeC {\cyrl }\IeC {\cyre }\IeC {\cyrn }\IeC {\cyrn }\IeC {\cyro }\IeC {\cyrishrt } \IeC {\cyra }\IeC {\cyrr }\IeC {\cyri }\IeC {\cyrf }\IeC {\cyrm }\IeC {\cyre }\IeC {\cyrt }\IeC {\cyri }\IeC {\cyrk }\IeC {\cyro }\IeC {\cyrishrt }}}{40}}
\newlabel{test2fi}{{19}{40}}
\@writefile{toc}{\contentsline {chapter}{\numberline {4}\IeC {\CYRT }\IeC {\cyre }\IeC {\cyrs }\IeC {\cyrt }\IeC {\cyri }\IeC {\cyrr }\IeC {\cyro }\IeC {\cyrv }\IeC {\cyra }\IeC {\cyrn }\IeC {\cyri }\IeC {\cyre } \IeC {\cyrs }\IeC {\cyrv }\IeC {\cyre }\IeC {\cyrr }\IeC {\cyrt }\IeC {\cyro }\IeC {\cyrch }\IeC {\cyrn }\IeC {\cyro }\IeC {\cyrishrt } \IeC {\cyrn }\IeC {\cyre }\IeC {\cyrishrt }\IeC {\cyrr }\IeC {\cyro }\IeC {\cyrn }\IeC {\cyrn }\IeC {\cyro }\IeC {\cyrishrt } \IeC {\cyrs }\IeC {\cyre }\IeC {\cyrt }\IeC {\cyri }}{41}}
\@writefile{toc}{\contentsline {section}{\numberline {4.1}\IeC {\CYRT }\IeC {\cyre }\IeC {\cyrs }\IeC {\cyrt }\IeC {\cyri }\IeC {\cyrr }\IeC {\cyro }\IeC {\cyrv }\IeC {\cyra }\IeC {\cyrn }\IeC {\cyri }\IeC {\cyre } \IeC {\cyrv }\IeC {\cyrery }\IeC {\cyrch }\IeC {\cyri }\IeC {\cyrs }\IeC {\cyrl }\IeC {\cyre }\IeC {\cyrn }\IeC {\cyri }\IeC {\cyrishrt } \IeC {\cyrc }\IeC {\cyre }\IeC {\cyrl }\IeC {\cyro }\IeC {\cyrch }\IeC {\cyri }\IeC {\cyrs }\IeC {\cyrl }\IeC {\cyre }\IeC {\cyrn }\IeC {\cyrn }\IeC {\cyro }\IeC {\cyrishrt } \IeC {\cyra }\IeC {\cyrr }\IeC {\cyri }\IeC {\cyrf }\IeC {\cyrm }\IeC {\cyre }\IeC {\cyrt }\IeC {\cyri }\IeC {\cyrk }\IeC {\cyri }}{41}}
\@writefile{toc}{\contentsline {section}{\numberline {4.2}\IeC {\CYRV }\IeC {\cyrery }\IeC {\cyrya }\IeC {\cyrv }\IeC {\cyrl }\IeC {\cyre }\IeC {\cyrn }\IeC {\cyrn }\IeC {\cyrery }\IeC {\cyre } \IeC {\cyro }\IeC {\cyrsh }\IeC {\cyri }\IeC {\cyrb }\IeC {\cyrk }\IeC {\cyri } \IeC {\cyrn }\IeC {\cyre }\IeC {\cyrh }\IeC {\cyrv }\IeC {\cyra }\IeC {\cyrt }\IeC {\cyrk }\IeC {\cyri } \IeC {\cyrt }\IeC {\cyro }\IeC {\cyrch }\IeC {\cyrn }\IeC {\cyro }\IeC {\cyrs }\IeC {\cyrt }\IeC {\cyri }}{42}}
\@writefile{toc}{\contentsline {section}{\numberline {4.3}\IeC {\CYRT }\IeC {\cyre }\IeC {\cyrs }\IeC {\cyrt }\IeC {\cyri }\IeC {\cyrr }\IeC {\cyro }\IeC {\cyrv }\IeC {\cyra }\IeC {\cyrn }\IeC {\cyri }\IeC {\cyre } \IeC {\cyrd }\IeC {\cyre }\IeC {\cyrt }\IeC {\cyre }\IeC {\cyrk }\IeC {\cyrc }\IeC {\cyri }\IeC {\cyri } \IeC {\cyro }\IeC {\cyrb }\IeC {\cyrhrdsn }\IeC {\cyre }\IeC {\cyrk }\IeC {\cyrt }\IeC {\cyro }\IeC {\cyrv } \IeC {\cyrn }\IeC {\cyra } \IeC {\cyrl }\IeC {\cyri }\IeC {\cyrch }\IeC {\cyrn }\IeC {\cyro }\IeC {\cyrm } \IeC {\CYRP }\IeC {\CYRK }}{42}}
\@writefile{lof}{\contentsline {figure}{\numberline {20}{\ignorespaces \IeC {\CYRO }\IeC {\cyrb }\IeC {\cyrhrdsn }\IeC {\cyre }\IeC {\cyrk }\IeC {\cyrt }\IeC {\cyrery } \IeC {\cyri }\IeC {\cyrz }\IeC {\cyro }\IeC {\cyrb }\IeC {\cyrr }\IeC {\cyra }\IeC {\cyrzh }\IeC {\cyre }\IeC {\cyrn }\IeC {\cyri }\IeC {\cyrya } eagle.jpg}}{43}}
\newlabel{eagle}{{20}{43}}
\@writefile{lof}{\contentsline {figure}{\numberline {21}{\ignorespaces \IeC {\CYRO }\IeC {\cyrb }\IeC {\cyrhrdsn }\IeC {\cyre }\IeC {\cyrk }\IeC {\cyrt }\IeC {\cyrery } \IeC {\cyri }\IeC {\cyrz }\IeC {\cyro }\IeC {\cyrb }\IeC {\cyrr }\IeC {\cyra }\IeC {\cyrzh }\IeC {\cyre }\IeC {\cyrn }\IeC {\cyri }\IeC {\cyrya } giraffe.jpg}}{44}}
\newlabel{giraffe}{{21}{44}}
\@writefile{lof}{\contentsline {figure}{\numberline {22}{\ignorespaces \IeC {\CYRO }\IeC {\cyrb }\IeC {\cyrhrdsn }\IeC {\cyre }\IeC {\cyrk }\IeC {\cyrt }\IeC {\cyrery } \IeC {\cyri }\IeC {\cyrz }\IeC {\cyro }\IeC {\cyrb }\IeC {\cyrr }\IeC {\cyra }\IeC {\cyrzh }\IeC {\cyre }\IeC {\cyrn }\IeC {\cyri }\IeC {\cyrya } horses.jpg}}{45}}
\newlabel{horses}{{22}{45}}
\@writefile{lof}{\contentsline {figure}{\numberline {23}{\ignorespaces \IeC {\CYRO }\IeC {\cyrb }\IeC {\cyrhrdsn }\IeC {\cyre }\IeC {\cyrk }\IeC {\cyrt }\IeC {\cyrery } \IeC {\cyri }\IeC {\cyrz }\IeC {\cyro }\IeC {\cyrb }\IeC {\cyrr }\IeC {\cyra }\IeC {\cyrzh }\IeC {\cyre }\IeC {\cyrn }\IeC {\cyri }\IeC {\cyrya } person.jpg}}{46}}
\newlabel{person}{{23}{46}}
\@writefile{lof}{\contentsline {figure}{\numberline {24}{\ignorespaces \IeC {\CYRO }\IeC {\cyrb }\IeC {\cyrhrdsn }\IeC {\cyre }\IeC {\cyrk }\IeC {\cyrt }\IeC {\cyrery } \IeC {\cyri }\IeC {\cyrz }\IeC {\cyro }\IeC {\cyrb }\IeC {\cyrr }\IeC {\cyra }\IeC {\cyrzh }\IeC {\cyre }\IeC {\cyrn }\IeC {\cyri }\IeC {\cyrya } scream.jpg}}{46}}
\newlabel{scream}{{24}{46}}
\@writefile{lof}{\contentsline {figure}{\numberline {25}{\ignorespaces \IeC {\CYRO }\IeC {\cyrb }\IeC {\cyrhrdsn }\IeC {\cyre }\IeC {\cyrk }\IeC {\cyrt }\IeC {\cyrery } \IeC {\cyri }\IeC {\cyrz }\IeC {\cyro }\IeC {\cyrb }\IeC {\cyrr }\IeC {\cyra }\IeC {\cyrzh }\IeC {\cyre }\IeC {\cyrn }\IeC {\cyri }\IeC {\cyrya } animal.jpg}}{47}}
\newlabel{animal}{{25}{47}}
\@writefile{lof}{\contentsline {figure}{\numberline {26}{\ignorespaces \IeC {\CYRO }\IeC {\cyrb }\IeC {\cyrhrdsn }\IeC {\cyre }\IeC {\cyrk }\IeC {\cyrt }\IeC {\cyrery } \IeC {\cyri }\IeC {\cyrz }\IeC {\cyro }\IeC {\cyrb }\IeC {\cyrr }\IeC {\cyra }\IeC {\cyrzh }\IeC {\cyre }\IeC {\cyrn }\IeC {\cyri }\IeC {\cyrya } corgi.jpg}}{48}}
\newlabel{corgi}{{26}{48}}
\@writefile{toc}{\contentsline {chapter}{\IeC {\CYRZ }\IeC {\cyra }\IeC {\cyrk }\IeC {\cyrl }\IeC {\cyryu }\IeC {\cyrch }\IeC {\cyre }\IeC {\cyrn }\IeC {\cyri }\IeC {\cyre }}{49}}
\bibcite{1}{1}
\bibcite{2}{2}
\bibcite{3}{3}
\bibcite{4}{4}
\bibcite{5}{5}
\bibcite{6}{6}
\bibcite{7}{7}
\bibcite{8}{8}
\bibcite{9}{9}
\bibcite{10}{10}
\bibcite{11}{11}
\bibcite{12}{12}
\@writefile{toc}{\contentsline {chapter}{\IeC {\CYRS }\IeC {\cyrp }\IeC {\cyri }\IeC {\cyrs }\IeC {\cyro }\IeC {\cyrk } \IeC {\cyri }\IeC {\cyrs }\IeC {\cyrp }\IeC {\cyro }\IeC {\cyrl }\IeC {\cyrsftsn }\IeC {\cyrz }\IeC {\cyro }\IeC {\cyrv }\IeC {\cyra }\IeC {\cyrn }\IeC {\cyrn }\IeC {\cyrery }\IeC {\cyrh } \IeC {\cyri }\IeC {\cyrs }\IeC {\cyrt }\IeC {\cyro }\IeC {\cyrch }\IeC {\cyrn }\IeC {\cyri }\IeC {\cyrk }\IeC {\cyro }\IeC {\cyrv }}{50}}
\bibcite{13}{13}
\bibcite{14}{14}
\@writefile{toc}{\contentsline {chapter}{{\cyrillictext  \CYRP \cyrr \cyri \cyrl \cyro \cyrzh \cyre \cyrn \cyri \cyre }~\IeC {\CYRA }~{\IeC {\CYRT }\IeC {\cyre }\IeC {\cyrh }\IeC {\cyrn }\IeC {\cyri }\IeC {\cyrch }\IeC {\cyre }\IeC {\cyrs }\IeC {\cyrk }\IeC {\cyro }\IeC {\cyre } \IeC {\cyrz }\IeC {\cyra }\IeC {\cyrd }\IeC {\cyra }\IeC {\cyrn }\IeC {\cyri }\IeC {\cyre }}}{52}}
\newlabel{reftotalpages}{{53}{52}}
\newlabel{reftotalfigures}{{26}{52}}
\newlabel{reftotaltables}{{5}{52}}
\newlabel{reftotalequations}{{27}{52}}
\newlabel{reftotalbibs}{{14}{52}}
\newlabel{reftotalappendices}{{1}{52}}
\ttl@finishall
