\select@language {russian}
\contentsline {chapter}{\IeC {\CYRV }\IeC {\cyrv }\IeC {\cyre }\IeC {\cyrd }\IeC {\cyre }\IeC {\cyrn }\IeC {\cyri }\IeC {\cyre }}{7}
\contentsline {chapter}{\numberline {1}\IeC {\CYRN }\IeC {\cyre }\IeC {\cyrishrt }\IeC {\cyrr }\IeC {\cyro }\IeC {\cyrn }\IeC {\cyrn }\IeC {\cyrery }\IeC {\cyre } \IeC {\cyrs }\IeC {\cyre }\IeC {\cyrt }\IeC {\cyri }}{9}
\contentsline {section}{\numberline {1.1}\IeC {\CYRI }\IeC {\cyrs }\IeC {\cyrk }\IeC {\cyru }\IeC {\cyrs }\IeC {\cyrs }\IeC {\cyrt }\IeC {\cyrv }\IeC {\cyre }\IeC {\cyrn }\IeC {\cyrn }\IeC {\cyra }\IeC {\cyrya } \IeC {\cyrn }\IeC {\cyre }\IeC {\cyrishrt }\IeC {\cyrr }\IeC {\cyro }\IeC {\cyrn }\IeC {\cyrn }\IeC {\cyra }\IeC {\cyrya } \IeC {\cyrs }\IeC {\cyre }\IeC {\cyrt }\IeC {\cyrsftsn }}{9}
\contentsline {section}{\numberline {1.2}\IeC {\CYRS }\IeC {\cyrv }\IeC {\cyre }\IeC {\cyrr }\IeC {\cyrt }\IeC {\cyro }\IeC {\cyrch }\IeC {\cyrn }\IeC {\cyra }\IeC {\cyrya } \IeC {\cyrn }\IeC {\cyre }\IeC {\cyrishrt }\IeC {\cyrr }\IeC {\cyro }\IeC {\cyrn }\IeC {\cyrn }\IeC {\cyra }\IeC {\cyrya } \IeC {\cyrs }\IeC {\cyre }\IeC {\cyrt }\IeC {\cyrsftsn }}{10}
\contentsline {section}{\numberline {1.3}\IeC {\CYRK }\IeC {\cyro }\IeC {\cyrn }\IeC {\cyrv }\IeC {\cyro }\IeC {\cyrl }\IeC {\cyryu }\IeC {\cyrc }\IeC {\cyri }\IeC {\cyro }\IeC {\cyrn }\IeC {\cyrn }\IeC {\cyrery }\IeC {\cyre } \IeC {\cyrs }\IeC {\cyrl }\IeC {\cyro }\IeC {\cyri } (\IeC {\cyrs }\IeC {\cyrl }\IeC {\cyro }\IeC {\cyri } \IeC {\cyrs }\IeC {\cyrv }\IeC {\cyre }\IeC {\cyrr }\IeC {\cyrt }\IeC {\cyrk }\IeC {\cyri })}{11}
\contentsline {section}{\numberline {1.4}\IeC {\CYRS }\IeC {\cyrl }\IeC {\cyro }\IeC {\cyri } \IeC {\cyrp }\IeC {\cyru }\IeC {\cyrl }\IeC {\cyrl }\IeC {\cyri }\IeC {\cyrn }\IeC {\cyrg }\IeC {\cyra }}{12}
\contentsline {chapter}{\numberline {2}\IeC {\CYRO }\IeC {\cyrb }\IeC {\cyrz }\IeC {\cyro }\IeC {\cyrr } \IeC {\cyrt }\IeC {\cyre }\IeC {\cyrh }\IeC {\cyrn }\IeC {\cyro }\IeC {\cyrl }\IeC {\cyro }\IeC {\cyrg }\IeC {\cyri }\IeC {\cyrishrt } \IeC {\cyri } \IeC {\cyrf }\IeC {\cyrr }\IeC {\cyre }\IeC {\cyrishrt }\IeC {\cyrm }\IeC {\cyrv }\IeC {\cyro }\IeC {\cyrr }\IeC {\cyrk }\IeC {\cyro }\IeC {\cyrv }}{14}
\contentsline {section}{\numberline {2.1}\IeC {\CYRO }\IeC {\cyrb }\IeC {\cyrz }\IeC {\cyro }\IeC {\cyrr } \IeC {\cyrs }\IeC {\cyru }\IeC {\cyrshch }\IeC {\cyre }\IeC {\cyrs }\IeC {\cyrt }\IeC {\cyrv }\IeC {\cyru }\IeC {\cyryu }\IeC {\cyrshch }\IeC {\cyri }\IeC {\cyrh } \IeC {\cyrf }\IeC {\cyrr }\IeC {\cyre }\IeC {\cyrishrt }\IeC {\cyrm }\IeC {\cyrv }\IeC {\cyro }\IeC {\cyrr }\IeC {\cyrk }\IeC {\cyro }\IeC {\cyrv } \IeC {\CYRS }\IeC {\CYRN }\IeC {\CYRS }}{14}
\contentsline {subsection}{\numberline {2.1.1}Python-\IeC {\cyrf }\IeC {\cyrr }\IeC {\cyre }\IeC {\cyrishrt }\IeC {\cyrm }\IeC {\cyrv }\IeC {\cyro }\IeC {\cyrr }\IeC {\cyrk } Faster R-CNN}{14}
\contentsline {subsection}{\numberline {2.1.2}C-\IeC {\cyrf }\IeC {\cyrr }\IeC {\cyre }\IeC {\cyrishrt }\IeC {\cyrm }\IeC {\cyrv }\IeC {\cyro }\IeC {\cyrr }\IeC {\cyrk } darknet}{14}
\contentsline {subsection}{\numberline {2.1.3}\IeC {\CYRF }\IeC {\cyrr }\IeC {\cyre }\IeC {\cyrishrt }\IeC {\cyrm }\IeC {\cyrv }\IeC {\cyro }\IeC {\cyrr }\IeC {\cyrk } TensorFlow \IeC {\cyro }\IeC {\cyrt } Google}{15}
\contentsline {section}{\numberline {2.2}\IeC {\CYRI }\IeC {\cyrs }\IeC {\cyrp }\IeC {\cyro }\IeC {\cyrl }\IeC {\cyrsftsn }\IeC {\cyrz }\IeC {\cyru }\IeC {\cyre }\IeC {\cyrm }\IeC {\cyrery }\IeC {\cyre } \IeC {\cyra }\IeC {\cyrr }\IeC {\cyrh }\IeC {\cyri }\IeC {\cyrt }\IeC {\cyre }\IeC {\cyrk }\IeC {\cyrt }\IeC {\cyru }\IeC {\cyrr }\IeC {\cyrery } \IeC {\cyrs }\IeC {\cyrv }\IeC {\cyre }\IeC {\cyrr }\IeC {\cyrt }\IeC {\cyro }\IeC {\cyrch }\IeC {\cyrn }\IeC {\cyrery }\IeC {\cyrh } \IeC {\cyrn }\IeC {\cyre }\IeC {\cyrishrt }\IeC {\cyrr }\IeC {\cyro }\IeC {\cyrn }\IeC {\cyrn }\IeC {\cyrery }\IeC {\cyrh } \IeC {\cyrs }\IeC {\cyre }\IeC {\cyrt }\IeC {\cyre }\IeC {\cyrishrt }}{15}
\contentsline {subsection}{\numberline {2.2.1}\IeC {\CYRA }\IeC {\cyrr }\IeC {\cyrh }\IeC {\cyri }\IeC {\cyrt }\IeC {\cyre }\IeC {\cyrk }\IeC {\cyrt }\IeC {\cyru }\IeC {\cyrr }\IeC {\cyra } \IeC {\guillemotleft }YOLO\IeC {\guillemotright }}{15}
\contentsline {subsection}{\numberline {2.2.2}\IeC {\CYRA }\IeC {\cyrr }\IeC {\cyrh }\IeC {\cyri }\IeC {\cyrt }\IeC {\cyre }\IeC {\cyrk }\IeC {\cyrt }\IeC {\cyru }\IeC {\cyrr }\IeC {\cyra } \IeC {\guillemotleft }AlexNet\IeC {\guillemotright }}{17}
\contentsline {subsection}{\numberline {2.2.3}\IeC {\CYRA }\IeC {\cyrr }\IeC {\cyrh }\IeC {\cyri }\IeC {\cyrt }\IeC {\cyre }\IeC {\cyrk }\IeC {\cyrt }\IeC {\cyru }\IeC {\cyrr }\IeC {\cyra } \IeC {\guillemotleft }VGG-16\IeC {\guillemotright }}{17}
\contentsline {section}{\numberline {2.3}\IeC {\CYRCH }\IeC {\cyri }\IeC {\cyrs }\IeC {\cyrl }\IeC {\cyro } \IeC {\cyrs } \IeC {\cyrf }\IeC {\cyri }\IeC {\cyrk }\IeC {\cyrs }\IeC {\cyri }\IeC {\cyrr }\IeC {\cyro }\IeC {\cyrv }\IeC {\cyra }\IeC {\cyrn }\IeC {\cyrn }\IeC {\cyro }\IeC {\cyrishrt } \IeC {\cyrt }\IeC {\cyro }\IeC {\cyrch }\IeC {\cyrk }\IeC {\cyro }\IeC {\cyrishrt }}{18}
\contentsline {section}{\numberline {2.4}\IeC {\CYRV }\IeC {\cyrery }\IeC {\cyrv }\IeC {\cyro }\IeC {\cyrd }\IeC {\cyrery }}{18}
\contentsline {chapter}{\numberline {3}\IeC {\CYRR }\IeC {\cyre }\IeC {\cyra }\IeC {\cyrl }\IeC {\cyri }\IeC {\cyrz }\IeC {\cyra }\IeC {\cyrc }\IeC {\cyri }\IeC {\cyrya } \IeC {\CYRS }\IeC {\CYRN }\IeC {\CYRS } \IeC {\cyrs } \IeC {\cyrc }\IeC {\cyre }\IeC {\cyrl }\IeC {\cyro }\IeC {\cyrch }\IeC {\cyri }\IeC {\cyrs }\IeC {\cyrl }\IeC {\cyre }\IeC {\cyrn }\IeC {\cyrn }\IeC {\cyro }\IeC {\cyrishrt } \IeC {\cyra }\IeC {\cyrr }\IeC {\cyri }\IeC {\cyrf }\IeC {\cyrm }\IeC {\cyre }\IeC {\cyrt }\IeC {\cyri }\IeC {\cyrk }\IeC {\cyro }\IeC {\cyrishrt }}{19}
\contentsline {section}{\numberline {3.1}\IeC {\CYRA }\IeC {\cyrr }\IeC {\cyri }\IeC {\cyrf }\IeC {\cyrm }\IeC {\cyre }\IeC {\cyrt }\IeC {\cyri }\IeC {\cyrk }\IeC {\cyra } \IeC {\cyrs } \IeC {\cyrf }\IeC {\cyri }\IeC {\cyrk }\IeC {\cyrs }\IeC {\cyri }\IeC {\cyrr }\IeC {\cyro }\IeC {\cyrv }\IeC {\cyra }\IeC {\cyrn }\IeC {\cyrn }\IeC {\cyro }\IeC {\cyrishrt } \IeC {\cyrt }\IeC {\cyro }\IeC {\cyrch }\IeC {\cyrk }\IeC {\cyro }\IeC {\cyrishrt }}{19}
\contentsline {subsection}{\numberline {3.1.1}\IeC {\CYRP }\IeC {\cyrr }\IeC {\cyre }\IeC {\cyro }\IeC {\cyrb }\IeC {\cyrr }\IeC {\cyra }\IeC {\cyrz }\IeC {\cyro }\IeC {\cyrv }\IeC {\cyra }\IeC {\cyrn }\IeC {\cyri }\IeC {\cyre }}{20}
\contentsline {subsection}{\numberline {3.1.2}\IeC {\CYRO }\IeC {\cyrp }\IeC {\cyre }\IeC {\cyrr }\IeC {\cyra }\IeC {\cyrc }\IeC {\cyri }\IeC {\cyrya } \IeC {\cyrs }\IeC {\cyrl }\IeC {\cyro }\IeC {\cyrzh }\IeC {\cyre }\IeC {\cyrn }\IeC {\cyri }\IeC {\cyrya }}{21}
\contentsline {subsection}{\numberline {3.1.3}\IeC {\CYRO }\IeC {\cyrp }\IeC {\cyre }\IeC {\cyrr }\IeC {\cyra }\IeC {\cyrc }\IeC {\cyri }\IeC {\cyrya } \IeC {\cyrv }\IeC {\cyrery }\IeC {\cyrch }\IeC {\cyri }\IeC {\cyrt }\IeC {\cyra }\IeC {\cyrn }\IeC {\cyri }\IeC {\cyrya }}{21}
\contentsline {subsection}{\numberline {3.1.4}\IeC {\CYRO }\IeC {\cyrp }\IeC {\cyre }\IeC {\cyrr }\IeC {\cyra }\IeC {\cyrc }\IeC {\cyri }\IeC {\cyrya } \IeC {\cyru }\IeC {\cyrm }\IeC {\cyrn }\IeC {\cyro }\IeC {\cyrzh }\IeC {\cyre }\IeC {\cyrn }\IeC {\cyri }\IeC {\cyrya }}{22}
\contentsline {subsection}{\numberline {3.1.5}\IeC {\CYRO }\IeC {\cyrp }\IeC {\cyre }\IeC {\cyrr }\IeC {\cyra }\IeC {\cyrc }\IeC {\cyri }\IeC {\cyrya } \IeC {\cyrd }\IeC {\cyre }\IeC {\cyrl }\IeC {\cyre }\IeC {\cyrn }\IeC {\cyri }\IeC {\cyrya }}{24}
\contentsline {subsection}{\numberline {3.1.6}\IeC {\CYRF }\IeC {\cyru }\IeC {\cyrn }\IeC {\cyrk }\IeC {\cyrc }\IeC {\cyri }\IeC {\cyrya } \IeC {\cyrk }\IeC {\cyrv }\IeC {\cyra }\IeC {\cyrd }\IeC {\cyrr }\IeC {\cyra }\IeC {\cyrt }\IeC {\cyrn }\IeC {\cyro }\IeC {\cyrg }\IeC {\cyro } \IeC {\cyrk }\IeC {\cyro }\IeC {\cyrr }\IeC {\cyrn }\IeC {\cyrya }}{25}
\contentsline {subsection}{\numberline {3.1.7}\IeC {\CYRS }\IeC {\cyrp }\IeC {\cyre }\IeC {\cyrc }\IeC {\cyri }\IeC {\cyra }\IeC {\cyrl }\IeC {\cyrsftsn }\IeC {\cyrn }\IeC {\cyrery }\IeC {\cyre } \IeC {\cyrv }\IeC {\cyro }\IeC {\cyrz }\IeC {\cyrm }\IeC {\cyro }\IeC {\cyrzh }\IeC {\cyrn }\IeC {\cyro }\IeC {\cyrs }\IeC {\cyrt }\IeC {\cyri }}{26}
\contentsline {section}{\numberline {3.2}\IeC {\CYRR }\IeC {\cyre }\IeC {\cyra }\IeC {\cyrl }\IeC {\cyri }\IeC {\cyrz }\IeC {\cyra }\IeC {\cyrc }\IeC {\cyri }\IeC {\cyrya } \IeC {\cyrf }\IeC {\cyru }\IeC {\cyrn }\IeC {\cyrk }\IeC {\cyrc }\IeC {\cyri }\IeC {\cyri } \IeC {\cyrz }\IeC {\cyra }\IeC {\cyrp }\IeC {\cyru }\IeC {\cyrs }\IeC {\cyrk }\IeC {\cyra } \IeC {\cyrp }\IeC {\cyrr }\IeC {\cyrya }\IeC {\cyrm }\IeC {\cyro }\IeC {\cyrg }\IeC {\cyro } \IeC {\cyrp }\IeC {\cyrr }\IeC {\cyro }\IeC {\cyrh }\IeC {\cyro }\IeC {\cyrd }\IeC {\cyra }}{26}
\contentsline {subsection}{\numberline {3.2.1}\IeC {\CYRZ }\IeC {\cyra }\IeC {\cyrg }\IeC {\cyrr }\IeC {\cyru }\IeC {\cyrz }\IeC {\cyrk }\IeC {\cyra } \IeC {\cyrs }\IeC {\cyre }\IeC {\cyrk }\IeC {\cyrc }\IeC {\cyri }\IeC {\cyrishrt } \IeC {\cyrn }\IeC {\cyra }\IeC {\cyrs }\IeC {\cyrt }\IeC {\cyrr }\IeC {\cyro }\IeC {\cyre }\IeC {\cyrk }}{26}
\contentsline {subsection}{\numberline {3.2.2}\IeC {\CYRN }\IeC {\cyra }\IeC {\cyrs }\IeC {\cyrt }\IeC {\cyrr }\IeC {\cyro }\IeC {\cyrishrt }\IeC {\cyrk }\IeC {\cyra } \IeC {\cyrp }\IeC {\cyra }\IeC {\cyrr }\IeC {\cyra }\IeC {\cyrm }\IeC {\cyre }\IeC {\cyrt }\IeC {\cyrr }\IeC {\cyro }\IeC {\cyrv } \IeC {\cyrn }\IeC {\cyre }\IeC {\cyrishrt }\IeC {\cyrr }\IeC {\cyro }\IeC {\cyrn }\IeC {\cyrn }\IeC {\cyro }\IeC {\cyrishrt } \IeC {\cyrs }\IeC {\cyre }\IeC {\cyrt }\IeC {\cyri }}{27}
\contentsline {subsection}{\numberline {3.2.3}\IeC {\CYRZ }\IeC {\cyra }\IeC {\cyrg }\IeC {\cyrr }\IeC {\cyru }\IeC {\cyrz }\IeC {\cyrk }\IeC {\cyra } \IeC {\cyri } \IeC {\cyrn }\IeC {\cyra }\IeC {\cyrs }\IeC {\cyrt }\IeC {\cyrr }\IeC {\cyro }\IeC {\cyrishrt }\IeC {\cyrk }\IeC {\cyra } \IeC {\cyrp }\IeC {\cyra }\IeC {\cyrr }\IeC {\cyra }\IeC {\cyrm }\IeC {\cyre }\IeC {\cyrt }\IeC {\cyrr }\IeC {\cyro }\IeC {\cyrv } \IeC {\cyrs }\IeC {\cyrl }\IeC {\cyro }\IeC {\cyre }\IeC {\cyrv }}{28}
\contentsline {subsection}{\numberline {3.2.4}\IeC {\CYRZ }\IeC {\cyra }\IeC {\cyrg }\IeC {\cyrr }\IeC {\cyru }\IeC {\cyrz }\IeC {\cyrk }\IeC {\cyra } \IeC {\cyrv }\IeC {\cyre }\IeC {\cyrs }\IeC {\cyro }\IeC {\cyrv }\IeC {\cyrery }\IeC {\cyrh } \IeC {\cyrk }\IeC {\cyro }\IeC {\cyrerev }\IeC {\cyrf }\IeC {\cyrf }\IeC {\cyri }\IeC {\cyrc }\IeC {\cyri }\IeC {\cyre }\IeC {\cyrn }\IeC {\cyrt }\IeC {\cyro }\IeC {\cyrv }}{29}
\contentsline {subsection}{\numberline {3.2.5}\IeC {\CYRZ }\IeC {\cyra }\IeC {\cyrg }\IeC {\cyrr }\IeC {\cyru }\IeC {\cyrz }\IeC {\cyrk }\IeC {\cyra } \IeC {\cyrm }\IeC {\cyre }\IeC {\cyrt }\IeC {\cyro }\IeC {\cyrk } \IeC {\cyro }\IeC {\cyrb }\IeC {\cyrhrdsn }\IeC {\cyre }\IeC {\cyrk }\IeC {\cyrt }\IeC {\cyro }\IeC {\cyrv }}{30}
\contentsline {subsection}{\numberline {3.2.6}\IeC {\CYRZ }\IeC {\cyra }\IeC {\cyrg }\IeC {\cyrr }\IeC {\cyru }\IeC {\cyrz }\IeC {\cyrk }\IeC {\cyra } \IeC {\cyri }\IeC {\cyrz }\IeC {\cyro }\IeC {\cyrb }\IeC {\cyrr }\IeC {\cyra }\IeC {\cyrzh }\IeC {\cyre }\IeC {\cyrn }\IeC {\cyri }\IeC {\cyrishrt } \IeC {\cyra }\IeC {\cyrl }\IeC {\cyrf }\IeC {\cyra }\IeC {\cyrv }\IeC {\cyri }\IeC {\cyrt }\IeC {\cyra }}{30}
\contentsline {subsection}{\numberline {3.2.7}\IeC {\CYRZ }\IeC {\cyra }\IeC {\cyrg }\IeC {\cyrr }\IeC {\cyru }\IeC {\cyrz }\IeC {\cyrk }\IeC {\cyra } \IeC {\cyri } \IeC {\cyro }\IeC {\cyrb }\IeC {\cyrr }\IeC {\cyra }\IeC {\cyrb }\IeC {\cyro }\IeC {\cyrt }\IeC {\cyrk }\IeC {\cyra } \IeC {\cyri }\IeC {\cyrz }\IeC {\cyro }\IeC {\cyrb }\IeC {\cyrr }\IeC {\cyra }\IeC {\cyrzh }\IeC {\cyre }\IeC {\cyrn }\IeC {\cyri }\IeC {\cyrya }}{30}
\contentsline {subsection}{\numberline {3.2.8}\IeC {\CYRZ }\IeC {\cyra }\IeC {\cyrp }\IeC {\cyru }\IeC {\cyrs }\IeC {\cyrk } \IeC {\cyrn }\IeC {\cyre }\IeC {\cyrishrt }\IeC {\cyrr }\IeC {\cyro }\IeC {\cyrn }\IeC {\cyrn }\IeC {\cyro }\IeC {\cyrishrt } \IeC {\cyrs }\IeC {\cyre }\IeC {\cyrt }\IeC {\cyri }}{32}
\contentsline {section}{\numberline {3.3}\IeC {\CYRF }\IeC {\cyru }\IeC {\cyrn }\IeC {\cyrk }\IeC {\cyrc }\IeC {\cyri }\IeC {\cyri } \IeC {\cyrs }\IeC {\cyro }\IeC {\cyrz }\IeC {\cyrd }\IeC {\cyra }\IeC {\cyrn }\IeC {\cyri }\IeC {\cyrya } \IeC {\cyrs }\IeC {\cyrl }\IeC {\cyro }\IeC {\cyre }\IeC {\cyrv }}{33}
\contentsline {section}{\numberline {3.4}\IeC {\CYRF }\IeC {\cyru }\IeC {\cyrn }\IeC {\cyrk }\IeC {\cyrc }\IeC {\cyri }\IeC {\cyrya } \IeC {\cyrp }\IeC {\cyrr }\IeC {\cyrya }\IeC {\cyrm }\IeC {\cyro }\IeC {\cyrg }\IeC {\cyro } \IeC {\cyrp }\IeC {\cyrr }\IeC {\cyro }\IeC {\cyrh }\IeC {\cyro }\IeC {\cyrd }\IeC {\cyra } \IeC {\cyrs }\IeC {\cyrl }\IeC {\cyro }\IeC {\cyrya } \IeC {\cyrs }\IeC {\cyrv }\IeC {\cyre }\IeC {\cyrr }\IeC {\cyrt }\IeC {\cyrk }\IeC {\cyri }}{33}
\contentsline {section}{\numberline {3.5}\IeC {\CYRF }\IeC {\cyru }\IeC {\cyrn }\IeC {\cyrk }\IeC {\cyrc }\IeC {\cyri }\IeC {\cyrya } \IeC {\cyrp }\IeC {\cyrr }\IeC {\cyrya }\IeC {\cyrm }\IeC {\cyro }\IeC {\cyrg }\IeC {\cyro } \IeC {\cyrp }\IeC {\cyrr }\IeC {\cyro }\IeC {\cyrh }\IeC {\cyro }\IeC {\cyrd }\IeC {\cyra } \IeC {\cyrs }\IeC {\cyrl }\IeC {\cyro }\IeC {\cyrya } \IeC {\cyrp }\IeC {\cyru }\IeC {\cyrl }\IeC {\cyrl }\IeC {\cyri }\IeC {\cyrn }\IeC {\cyrg }\IeC {\cyra }}{34}
\contentsline {section}{\numberline {3.6}\IeC {\CYRP }\IeC {\cyro }\IeC {\cyrl }\IeC {\cyru }\IeC {\cyrch }\IeC {\cyre }\IeC {\cyrn }\IeC {\cyri }\IeC {\cyre } \IeC {\cyrr }\IeC {\cyre }\IeC {\cyrz }\IeC {\cyru }\IeC {\cyrl }\IeC {\cyrsftsn }\IeC {\cyrt }\IeC {\cyra }\IeC {\cyrt }\IeC {\cyro }\IeC {\cyrv }}{34}
\contentsline {subsection}{\numberline {3.6.1}\IeC {\CYRO }\IeC {\cyrt }\IeC {\cyrr }\IeC {\cyri }\IeC {\cyrs }\IeC {\cyro }\IeC {\cyrv }\IeC {\cyrk }\IeC {\cyra } \IeC {\cyrn }\IeC {\cyra }\IeC {\cyrishrt }\IeC {\cyrd }\IeC {\cyre }\IeC {\cyrn }\IeC {\cyrn }\IeC {\cyrery }\IeC {\cyrh } \IeC {\cyro }\IeC {\cyrb }\IeC {\cyrhrdsn }\IeC {\cyre }\IeC {\cyrk }\IeC {\cyrt }\IeC {\cyro }\IeC {\cyrv }}{34}
\contentsline {subsection}{\numberline {3.6.2}\IeC {\CYRS }\IeC {\cyro }\IeC {\cyrh }\IeC {\cyrr }\IeC {\cyra }\IeC {\cyrn }\IeC {\cyre }\IeC {\cyrn }\IeC {\cyri }\IeC {\cyre } \IeC {\cyri }\IeC {\cyrz }\IeC {\cyro }\IeC {\cyrb }\IeC {\cyrr }\IeC {\cyra }\IeC {\cyrzh }\IeC {\cyre }\IeC {\cyrn }\IeC {\cyri }\IeC {\cyrya }}{35}
\contentsline {section}{\numberline {3.7}\IeC {\CYRV }\IeC {\cyrery }\IeC {\cyrv }\IeC {\cyro }\IeC {\cyrd }\IeC {\cyrery }}{37}
\contentsline {chapter}{\numberline {4}\IeC {\CYRT }\IeC {\cyre }\IeC {\cyrs }\IeC {\cyrt }\IeC {\cyri }\IeC {\cyrr }\IeC {\cyro }\IeC {\cyrv }\IeC {\cyra }\IeC {\cyrn }\IeC {\cyri }\IeC {\cyre } \IeC {\cyrs }\IeC {\cyrv }\IeC {\cyre }\IeC {\cyrr }\IeC {\cyrt }\IeC {\cyro }\IeC {\cyrch }\IeC {\cyrn }\IeC {\cyro }\IeC {\cyrishrt } \IeC {\cyrn }\IeC {\cyre }\IeC {\cyrishrt }\IeC {\cyrr }\IeC {\cyro }\IeC {\cyrn }\IeC {\cyrn }\IeC {\cyro }\IeC {\cyrishrt } \IeC {\cyrs }\IeC {\cyre }\IeC {\cyrt }\IeC {\cyri }}{41}
\contentsline {section}{\numberline {4.1}\IeC {\CYRT }\IeC {\cyre }\IeC {\cyrs }\IeC {\cyrt }\IeC {\cyri }\IeC {\cyrr }\IeC {\cyro }\IeC {\cyrv }\IeC {\cyra }\IeC {\cyrn }\IeC {\cyri }\IeC {\cyre } \IeC {\cyrv }\IeC {\cyrery }\IeC {\cyrch }\IeC {\cyri }\IeC {\cyrs }\IeC {\cyrl }\IeC {\cyre }\IeC {\cyrn }\IeC {\cyri }\IeC {\cyrishrt } \IeC {\cyrc }\IeC {\cyre }\IeC {\cyrl }\IeC {\cyro }\IeC {\cyrch }\IeC {\cyri }\IeC {\cyrs }\IeC {\cyrl }\IeC {\cyre }\IeC {\cyrn }\IeC {\cyrn }\IeC {\cyro }\IeC {\cyrishrt } \IeC {\cyra }\IeC {\cyrr }\IeC {\cyri }\IeC {\cyrf }\IeC {\cyrm }\IeC {\cyre }\IeC {\cyrt }\IeC {\cyri }\IeC {\cyrk }\IeC {\cyri }}{41}
\contentsline {section}{\numberline {4.2}\IeC {\CYRV }\IeC {\cyrery }\IeC {\cyrya }\IeC {\cyrv }\IeC {\cyrl }\IeC {\cyre }\IeC {\cyrn }\IeC {\cyrn }\IeC {\cyrery }\IeC {\cyre } \IeC {\cyro }\IeC {\cyrsh }\IeC {\cyri }\IeC {\cyrb }\IeC {\cyrk }\IeC {\cyri } \IeC {\cyrn }\IeC {\cyre }\IeC {\cyrh }\IeC {\cyrv }\IeC {\cyra }\IeC {\cyrt }\IeC {\cyrk }\IeC {\cyri } \IeC {\cyrt }\IeC {\cyro }\IeC {\cyrch }\IeC {\cyrn }\IeC {\cyro }\IeC {\cyrs }\IeC {\cyrt }\IeC {\cyri }}{42}
\contentsline {section}{\numberline {4.3}\IeC {\CYRT }\IeC {\cyre }\IeC {\cyrs }\IeC {\cyrt }\IeC {\cyri }\IeC {\cyrr }\IeC {\cyro }\IeC {\cyrv }\IeC {\cyra }\IeC {\cyrn }\IeC {\cyri }\IeC {\cyre } \IeC {\cyrd }\IeC {\cyre }\IeC {\cyrt }\IeC {\cyre }\IeC {\cyrk }\IeC {\cyrc }\IeC {\cyri }\IeC {\cyri } \IeC {\cyro }\IeC {\cyrb }\IeC {\cyrhrdsn }\IeC {\cyre }\IeC {\cyrk }\IeC {\cyrt }\IeC {\cyro }\IeC {\cyrv } \IeC {\cyrn }\IeC {\cyra } \IeC {\cyrl }\IeC {\cyri }\IeC {\cyrch }\IeC {\cyrn }\IeC {\cyro }\IeC {\cyrm } \IeC {\CYRP }\IeC {\CYRK }}{42}
\contentsline {chapter}{\IeC {\CYRZ }\IeC {\cyra }\IeC {\cyrk }\IeC {\cyrl }\IeC {\cyryu }\IeC {\cyrch }\IeC {\cyre }\IeC {\cyrn }\IeC {\cyri }\IeC {\cyre }}{49}
\contentsline {chapter}{\IeC {\CYRS }\IeC {\cyrp }\IeC {\cyri }\IeC {\cyrs }\IeC {\cyro }\IeC {\cyrk } \IeC {\cyri }\IeC {\cyrs }\IeC {\cyrp }\IeC {\cyro }\IeC {\cyrl }\IeC {\cyrsftsn }\IeC {\cyrz }\IeC {\cyro }\IeC {\cyrv }\IeC {\cyra }\IeC {\cyrn }\IeC {\cyrn }\IeC {\cyrery }\IeC {\cyrh } \IeC {\cyri }\IeC {\cyrs }\IeC {\cyrt }\IeC {\cyro }\IeC {\cyrch }\IeC {\cyrn }\IeC {\cyri }\IeC {\cyrk }\IeC {\cyro }\IeC {\cyrv }}{50}
\contentsline {chapter}{{\cyrillictext \CYRP \cyrr \cyri \cyrl \cyro \cyrzh \cyre \cyrn \cyri \cyre }~\IeC {\CYRA }~{\IeC {\CYRT }\IeC {\cyre }\IeC {\cyrh }\IeC {\cyrn }\IeC {\cyri }\IeC {\cyrch }\IeC {\cyre }\IeC {\cyrs }\IeC {\cyrk }\IeC {\cyro }\IeC {\cyre } \IeC {\cyrz }\IeC {\cyra }\IeC {\cyrd }\IeC {\cyra }\IeC {\cyrn }\IeC {\cyri }\IeC {\cyre }}}{52}
\contentsfinish 
