\relax 
\catcode `"\active 
\select@language{russian}
\@writefile{toc}{\select@language{russian}}
\@writefile{lof}{\select@language{russian}}
\@writefile{lot}{\select@language{russian}}
\gdef \LT@i {\LT@entry 
    {4}{137.10068pt}\LT@entry 
    {4}{305.13727pt}}
\@writefile{toc}{\contentsline {chapter}{\IeC {\CYRG }\IeC {\cyrl }\IeC {\cyro }\IeC {\cyrs }\IeC {\cyrs }\IeC {\cyra }\IeC {\cyrr }\IeC {\cyri }\IeC {\cyrishrt }}{5}}
\@writefile{toc}{\contentsline {chapter}{\numberline {1}\IeC {\CYRV }\IeC {\cyrv }\IeC {\cyre }\IeC {\cyrd }\IeC {\cyre }\IeC {\cyrn }\IeC {\cyri }\IeC {\cyre }}{6}}
\@writefile{toc}{\contentsline {section}{\numberline {1.1}\IeC {\CYRN }\IeC {\cyra }\IeC {\cyri }\IeC {\cyrm }\IeC {\cyre }\IeC {\cyrn }\IeC {\cyro }\IeC {\cyrv }\IeC {\cyra }\IeC {\cyrn }\IeC {\cyri }\IeC {\cyre } \IeC {\cyrp }\IeC {\cyrr }\IeC {\cyro }\IeC {\cyrg }\IeC {\cyrr }\IeC {\cyra }\IeC {\cyrm }\IeC {\cyrm }\IeC {\cyrn }\IeC {\cyro }\IeC {\cyrg }\IeC {\cyro } \IeC {\cyri }\IeC {\cyrz }\IeC {\cyrd }\IeC {\cyre }\IeC {\cyrl }\IeC {\cyri }\IeC {\cyrya }}{6}}
\@writefile{toc}{\contentsline {section}{\numberline {1.2}\IeC {\CYRO }\IeC {\cyrb }\IeC {\cyrl }\IeC {\cyra }\IeC {\cyrs }\IeC {\cyrt }\IeC {\cyrsftsn } \IeC {\cyrp }\IeC {\cyrr }\IeC {\cyri }\IeC {\cyrm }\IeC {\cyre }\IeC {\cyrn }\IeC {\cyre }\IeC {\cyrn }\IeC {\cyri }\IeC {\cyrya }}{6}}
\@writefile{toc}{\contentsline {chapter}{\numberline {2}\IeC {\CYRO }\IeC {\cyrs }\IeC {\cyrn }\IeC {\cyro }\IeC {\cyrv }\IeC {\cyra }\IeC {\cyrn }\IeC {\cyri }\IeC {\cyre } \IeC {\cyrd }\IeC {\cyrl }\IeC {\cyrya } \IeC {\cyrr }\IeC {\cyra }\IeC {\cyrz }\IeC {\cyrr }\IeC {\cyra }\IeC {\cyrb }\IeC {\cyro }\IeC {\cyrt }\IeC {\cyrk }\IeC {\cyri }}{6}}
\@writefile{toc}{\contentsline {section}{\numberline {2.1}\IeC {\CYRD }\IeC {\cyro }\IeC {\cyrk }\IeC {\cyru }\IeC {\cyrm }\IeC {\cyre }\IeC {\cyrn }\IeC {\cyrt }, \IeC {\cyrn }\IeC {\cyra } \IeC {\cyro }\IeC {\cyrs }\IeC {\cyrn }\IeC {\cyro }\IeC {\cyrv }\IeC {\cyra }\IeC {\cyrn }\IeC {\cyri }\IeC {\cyri } \IeC {\cyrk }\IeC {\cyro }\IeC {\cyrt }\IeC {\cyro }\IeC {\cyrr }\IeC {\cyro }\IeC {\cyrg }\IeC {\cyro } \IeC {\cyrv }\IeC {\cyre }\IeC {\cyrd }\IeC {\cyre }\IeC {\cyrt }\IeC {\cyrs }\IeC {\cyrya } \IeC {\cyrr }\IeC {\cyra }\IeC {\cyrz }\IeC {\cyrr }\IeC {\cyra }\IeC {\cyrb }\IeC {\cyro }\IeC {\cyrt }\IeC {\cyrk }\IeC {\cyra }}{6}}
\@writefile{toc}{\contentsline {section}{\numberline {2.2}\IeC {\CYRO }\IeC {\cyrr }\IeC {\cyrg }\IeC {\cyra }\IeC {\cyrn }\IeC {\cyri }\IeC {\cyrz }\IeC {\cyra }\IeC {\cyrc }\IeC {\cyri }\IeC {\cyrya }, \IeC {\cyru }\IeC {\cyrt }\IeC {\cyrv }\IeC {\cyre }\IeC {\cyrr }\IeC {\cyrd }\IeC {\cyri }\IeC {\cyrv }\IeC {\cyrsh }\IeC {\cyra }\IeC {\cyrya } \IeC {\cyrerev }\IeC {\cyrt }\IeC {\cyro }\IeC {\cyrt } \IeC {\cyrd }\IeC {\cyro }\IeC {\cyrk }\IeC {\cyru }\IeC {\cyrm }\IeC {\cyre }\IeC {\cyrn }\IeC {\cyrt }, \IeC {\cyri } \IeC {\cyrd }\IeC {\cyra }\IeC {\cyrt }\IeC {\cyra } \IeC {\cyre }\IeC {\cyrg }\IeC {\cyro } \IeC {\cyru }\IeC {\cyrt }\IeC {\cyrv }\IeC {\cyre }\IeC {\cyrr }\IeC {\cyrzh }\IeC {\cyrd }\IeC {\cyre }\IeC {\cyrn }\IeC {\cyri }\IeC {\cyrya }}{6}}
\@writefile{toc}{\contentsline {section}{\numberline {2.3}\IeC {\CYRN }\IeC {\cyra }\IeC {\cyri }\IeC {\cyrm }\IeC {\cyre }\IeC {\cyrn }\IeC {\cyro }\IeC {\cyrv }\IeC {\cyra }\IeC {\cyrn }\IeC {\cyri }\IeC {\cyre } \IeC {\cyri } \IeC {\cyru }\IeC {\cyrs }\IeC {\cyrl }\IeC {\cyro }\IeC {\cyrv }\IeC {\cyrn }\IeC {\cyro }\IeC {\cyre } \IeC {\cyro }\IeC {\cyrb }\IeC {\cyro }\IeC {\cyrz }\IeC {\cyrn }\IeC {\cyra }\IeC {\cyrch }\IeC {\cyre }\IeC {\cyrn }\IeC {\cyri }\IeC {\cyre } \IeC {\cyrt }\IeC {\cyre }\IeC {\cyrm }\IeC {\cyrery } \IeC {\cyrr }\IeC {\cyra }\IeC {\cyrz }\IeC {\cyrr }\IeC {\cyra }\IeC {\cyrb }\IeC {\cyro }\IeC {\cyrt }\IeC {\cyrk }\IeC {\cyri }}{7}}
\@writefile{toc}{\contentsline {chapter}{\numberline {3}\IeC {\CYRN }\IeC {\cyra }\IeC {\cyrz }\IeC {\cyrn }\IeC {\cyra }\IeC {\cyrch }\IeC {\cyre }\IeC {\cyrn }\IeC {\cyri }\IeC {\cyre } \IeC {\cyrr }\IeC {\cyra }\IeC {\cyrz }\IeC {\cyrr }\IeC {\cyra }\IeC {\cyrb }\IeC {\cyro }\IeC {\cyrt }\IeC {\cyrk }\IeC {\cyri }}{7}}
\@writefile{toc}{\contentsline {chapter}{\numberline {4}\IeC {\CYRT }\IeC {\cyrr }\IeC {\cyre }\IeC {\cyrb }\IeC {\cyro }\IeC {\cyrv }\IeC {\cyra }\IeC {\cyrn }\IeC {\cyri }\IeC {\cyrya } \IeC {\cyrk } \IeC {\cyrp }\IeC {\cyrr }\IeC {\cyro }\IeC {\cyrg }\IeC {\cyrr }\IeC {\cyra }\IeC {\cyrm }\IeC {\cyrm }\IeC {\cyre }}{7}}
\@writefile{toc}{\contentsline {section}{\numberline {4.1}\IeC {\CYRT }\IeC {\cyrr }\IeC {\cyre }\IeC {\cyrb }\IeC {\cyro }\IeC {\cyrv }\IeC {\cyra }\IeC {\cyrn }\IeC {\cyri }\IeC {\cyre } \IeC {\cyrk } \IeC {\cyrf }\IeC {\cyru }\IeC {\cyrn }\IeC {\cyrk }\IeC {\cyrc }\IeC {\cyri }\IeC {\cyro }\IeC {\cyrn }\IeC {\cyra }\IeC {\cyrl }\IeC {\cyrsftsn }\IeC {\cyrn }\IeC {\cyrery }\IeC {\cyrm } \IeC {\cyrh }\IeC {\cyra }\IeC {\cyrr }\IeC {\cyra }\IeC {\cyrk }\IeC {\cyrt }\IeC {\cyre }\IeC {\cyrr }\IeC {\cyri }\IeC {\cyrs }\IeC {\cyrt }\IeC {\cyri }\IeC {\cyrk }\IeC {\cyra }\IeC {\cyrm }}{7}}
\@writefile{toc}{\contentsline {subsection}{\numberline {4.1.1}\IeC {\CYRS }\IeC {\cyro }\IeC {\cyrs }\IeC {\cyrt }\IeC {\cyra }\IeC {\cyrv } \IeC {\cyrv }\IeC {\cyrery }\IeC {\cyrp }\IeC {\cyro }\IeC {\cyrl }\IeC {\cyrn }\IeC {\cyrya }\IeC {\cyre }\IeC {\cyrm }\IeC {\cyrery }\IeC {\cyrh } \IeC {\cyrf }\IeC {\cyru }\IeC {\cyrn }\IeC {\cyrk }\IeC {\cyrc }\IeC {\cyri }\IeC {\cyrishrt }}{7}}
\@writefile{toc}{\contentsline {section}{\numberline {4.2}\IeC {\CYRO }\IeC {\cyrr }\IeC {\cyrg }\IeC {\cyra }\IeC {\cyrn }\IeC {\cyri }\IeC {\cyrz }\IeC {\cyra }\IeC {\cyrc }\IeC {\cyri }\IeC {\cyrya } \IeC {\cyrv }\IeC {\cyrh }\IeC {\cyro }\IeC {\cyrd }\IeC {\cyrn }\IeC {\cyrery }\IeC {\cyrh } \IeC {\cyri } \IeC {\cyrv }\IeC {\cyrery }\IeC {\cyrh }\IeC {\cyro }\IeC {\cyrd }\IeC {\cyrn }\IeC {\cyrery }\IeC {\cyrh } \IeC {\cyrd }\IeC {\cyra }\IeC {\cyrn }\IeC {\cyrn }\IeC {\cyrery }\IeC {\cyrh }}{8}}
\@writefile{toc}{\contentsline {subsection}{\numberline {4.2.1}\IeC {\CYRV }\IeC {\cyrh }\IeC {\cyro }\IeC {\cyrd }\IeC {\cyrn }\IeC {\cyrery }\IeC {\cyre } \IeC {\cyrd }\IeC {\cyra }\IeC {\cyrn }\IeC {\cyrn }\IeC {\cyrery }\IeC {\cyre }}{8}}
\@writefile{toc}{\contentsline {subsection}{\numberline {4.2.2}\IeC {\CYRV }\IeC {\cyrery }\IeC {\cyrh }\IeC {\cyro }\IeC {\cyrd }\IeC {\cyrn }\IeC {\cyrery }\IeC {\cyre } \IeC {\cyrd }\IeC {\cyra }\IeC {\cyrn }\IeC {\cyrn }\IeC {\cyrery }\IeC {\cyre }}{8}}
\@writefile{toc}{\contentsline {section}{\numberline {4.3}\IeC {\CYRT }\IeC {\cyrr }\IeC {\cyre }\IeC {\cyrb }\IeC {\cyro }\IeC {\cyrv }\IeC {\cyra }\IeC {\cyrn }\IeC {\cyri }\IeC {\cyrya } \IeC {\cyrk } \IeC {\cyrn }\IeC {\cyra }\IeC {\cyrd }\IeC {\cyre }\IeC {\cyrzh }\IeC {\cyrn }\IeC {\cyro }\IeC {\cyrs }\IeC {\cyrt }\IeC {\cyri }}{9}}
\@writefile{toc}{\contentsline {subsection}{\numberline {4.3.1}\IeC {\CYRT }\IeC {\cyrr }\IeC {\cyre }\IeC {\cyrb }\IeC {\cyro }\IeC {\cyrv }\IeC {\cyra }\IeC {\cyrn }\IeC {\cyri }\IeC {\cyrya } \IeC {\cyrk } \IeC {\cyrn }\IeC {\cyra }\IeC {\cyrd }\IeC {\cyre }\IeC {\cyrzh }\IeC {\cyrn }\IeC {\cyro }\IeC {\cyrm }\IeC {\cyru } \IeC {\cyrf }\IeC {\cyru }\IeC {\cyrn }\IeC {\cyrk }\IeC {\cyrc }\IeC {\cyri }\IeC {\cyro }\IeC {\cyrn }\IeC {\cyri }\IeC {\cyrr }\IeC {\cyro }\IeC {\cyrv }\IeC {\cyra }\IeC {\cyrn }\IeC {\cyri }\IeC {\cyryu }}{9}}
\@writefile{toc}{\contentsline {subsection}{\numberline {4.3.2}\IeC {\CYRV }\IeC {\cyrr }\IeC {\cyre }\IeC {\cyrm }\IeC {\cyrya } \IeC {\cyrv }\IeC {\cyro }\IeC {\cyrs }\IeC {\cyrs }\IeC {\cyrt }\IeC {\cyra }\IeC {\cyrn }\IeC {\cyro }\IeC {\cyrv }\IeC {\cyrl }\IeC {\cyre }\IeC {\cyrn }\IeC {\cyri }\IeC {\cyrya } \IeC {\cyrp }\IeC {\cyro }\IeC {\cyrs }\IeC {\cyrl }\IeC {\cyre } \IeC {\cyro }\IeC {\cyrt }\IeC {\cyrk }\IeC {\cyra }\IeC {\cyrz }\IeC {\cyra }}{9}}
\@writefile{toc}{\contentsline {section}{\numberline {4.4}\IeC {\CYRT }\IeC {\cyrr }\IeC {\cyre }\IeC {\cyrb }\IeC {\cyro }\IeC {\cyrv }\IeC {\cyra }\IeC {\cyrn }\IeC {\cyri }\IeC {\cyrya } \IeC {\cyrk } \IeC {\cyrs }\IeC {\cyro }\IeC {\cyrs }\IeC {\cyrt }\IeC {\cyra }\IeC {\cyrv }\IeC {\cyru } \IeC {\cyri } \IeC {\cyrp }\IeC {\cyra }\IeC {\cyrr }\IeC {\cyra }\IeC {\cyrm }\IeC {\cyre }\IeC {\cyrt }\IeC {\cyrr }\IeC {\cyra }\IeC {\cyrm } \IeC {\cyrt }\IeC {\cyre }\IeC {\cyrh }\IeC {\cyrn }\IeC {\cyri }\IeC {\cyrch }\IeC {\cyre }\IeC {\cyrs }\IeC {\cyrk }\IeC {\cyri }\IeC {\cyrh } \IeC {\cyrs }\IeC {\cyrr }\IeC {\cyre }\IeC {\cyrd }\IeC {\cyrs }\IeC {\cyrt }\IeC {\cyrv }}{9}}
\@writefile{toc}{\contentsline {section}{\numberline {4.5}\IeC {\CYRT }\IeC {\cyrr }\IeC {\cyre }\IeC {\cyrb }\IeC {\cyro }\IeC {\cyrv }\IeC {\cyra }\IeC {\cyrn }\IeC {\cyri }\IeC {\cyrya } \IeC {\cyrk } \IeC {\cyri }\IeC {\cyrn }\IeC {\cyrf }\IeC {\cyro }\IeC {\cyrr }\IeC {\cyrm }\IeC {\cyra }\IeC {\cyrc }\IeC {\cyri }\IeC {\cyro }\IeC {\cyrn }\IeC {\cyrn }\IeC {\cyro }\IeC {\cyrishrt } \IeC {\cyri } \IeC {\cyrp }\IeC {\cyrr }\IeC {\cyro }\IeC {\cyrg }\IeC {\cyrr }\IeC {\cyra }\IeC {\cyrm }\IeC {\cyrm }\IeC {\cyrn }\IeC {\cyro }\IeC {\cyrishrt } \IeC {\cyrs }\IeC {\cyro }\IeC {\cyrv }\IeC {\cyrm }\IeC {\cyre }\IeC {\cyrs }\IeC {\cyrt }\IeC {\cyri }\IeC {\cyrm }\IeC {\cyro }\IeC {\cyrs }\IeC {\cyrt }\IeC {\cyri }}{10}}
\@writefile{toc}{\contentsline {subsection}{\numberline {4.5.1}\IeC {\CYRT }\IeC {\cyrr }\IeC {\cyre }\IeC {\cyrb }\IeC {\cyro }\IeC {\cyrv }\IeC {\cyra }\IeC {\cyrn }\IeC {\cyri }\IeC {\cyrya } \IeC {\cyrk } \IeC {\cyrm }\IeC {\cyre }\IeC {\cyrt }\IeC {\cyro }\IeC {\cyrd }\IeC {\cyra }\IeC {\cyrm } \IeC {\cyrr }\IeC {\cyre }\IeC {\cyrsh }\IeC {\cyre }\IeC {\cyrn }\IeC {\cyri }\IeC {\cyrya }}{10}}
\@writefile{toc}{\contentsline {subsection}{\numberline {4.5.2}\IeC {\CYRT }\IeC {\cyrr }\IeC {\cyre }\IeC {\cyrb }\IeC {\cyro }\IeC {\cyrv }\IeC {\cyra }\IeC {\cyrn }\IeC {\cyri }\IeC {\cyrya } \IeC {\cyrk } \IeC {\cyrya }\IeC {\cyrz }\IeC {\cyrery }\IeC {\cyrk }\IeC {\cyra }\IeC {\cyrm } \IeC {\cyrp }\IeC {\cyrr }\IeC {\cyro }\IeC {\cyrg }\IeC {\cyrr }\IeC {\cyra }\IeC {\cyrm }\IeC {\cyrm }\IeC {\cyri }\IeC {\cyrr }\IeC {\cyro }\IeC {\cyrv }\IeC {\cyra }\IeC {\cyrn }\IeC {\cyri }\IeC {\cyrya }}{10}}
\@writefile{toc}{\contentsline {chapter}{\numberline {5}\IeC {\CYRT }\IeC {\cyrr }\IeC {\cyre }\IeC {\cyrb }\IeC {\cyro }\IeC {\cyrv }\IeC {\cyra }\IeC {\cyrn }\IeC {\cyri }\IeC {\cyrya } \IeC {\cyrk } \IeC {\cyrp }\IeC {\cyrr }\IeC {\cyro }\IeC {\cyrg }\IeC {\cyrr }\IeC {\cyra }\IeC {\cyrm }\IeC {\cyrm }\IeC {\cyrn }\IeC {\cyro }\IeC {\cyrishrt } \IeC {\cyrd }\IeC {\cyro }\IeC {\cyrk }\IeC {\cyru }\IeC {\cyrm }\IeC {\cyre }\IeC {\cyrn }\IeC {\cyrt }\IeC {\cyra }\IeC {\cyrc }\IeC {\cyri }\IeC {\cyri }}{10}}
\@writefile{toc}{\contentsline {chapter}{\numberline {6}\IeC {\CYRS }\IeC {\cyrt }\IeC {\cyra }\IeC {\cyrd }\IeC {\cyri }\IeC {\cyri } \IeC {\cyri } \IeC {\cyrerev }\IeC {\cyrt }\IeC {\cyra }\IeC {\cyrp }\IeC {\cyrery } \IeC {\cyrr }\IeC {\cyra }\IeC {\cyrz }\IeC {\cyrr }\IeC {\cyra }\IeC {\cyrb }\IeC {\cyro }\IeC {\cyrt }\IeC {\cyrk }\IeC {\cyri }}{10}}
\@writefile{toc}{\contentsline {section}{\numberline {6.1}\IeC {\CYRS }\IeC {\cyrt }\IeC {\cyra }\IeC {\cyrd }\IeC {\cyri }\IeC {\cyri } \IeC {\cyrr }\IeC {\cyra }\IeC {\cyrz }\IeC {\cyrr }\IeC {\cyra }\IeC {\cyrb }\IeC {\cyro }\IeC {\cyrt }\IeC {\cyrk }\IeC {\cyri }}{10}}
\@writefile{toc}{\contentsline {section}{\numberline {6.2}\IeC {\CYREREV }\IeC {\cyrt }\IeC {\cyra }\IeC {\cyrp }\IeC {\cyrery } \IeC {\cyrr }\IeC {\cyra }\IeC {\cyrz }\IeC {\cyrr }\IeC {\cyra }\IeC {\cyrb }\IeC {\cyro }\IeC {\cyrt }\IeC {\cyrk }\IeC {\cyri }}{11}}
\@writefile{toc}{\contentsline {chapter}{\numberline {7}\IeC {\CYRP }\IeC {\cyro }\IeC {\cyrr }\IeC {\cyrya }\IeC {\cyrd }\IeC {\cyro }\IeC {\cyrk } \IeC {\cyrk }\IeC {\cyro }\IeC {\cyrn }\IeC {\cyrt }\IeC {\cyrr }\IeC {\cyro }\IeC {\cyrl }\IeC {\cyrya } \IeC {\cyri } \IeC {\cyrp }\IeC {\cyrr }\IeC {\cyri }\IeC {\cyre }\IeC {\cyrm }\IeC {\cyrk }\IeC {\cyri }}{12}}
\@writefile{toc}{\contentsline {section}{\numberline {7.1}\IeC {\CYRV }\IeC {\cyri }\IeC {\cyrd }\IeC {\cyrery } \IeC {\cyri }\IeC {\cyrs }\IeC {\cyrp }\IeC {\cyrery }\IeC {\cyrt }\IeC {\cyra }\IeC {\cyrn }\IeC {\cyri }\IeC {\cyrishrt }}{12}}
\@writefile{toc}{\contentsline {section}{\numberline {7.2}\IeC {\CYRO }\IeC {\cyrb }\IeC {\cyrshch }\IeC {\cyri }\IeC {\cyre } \IeC {\cyrt }\IeC {\cyrr }\IeC {\cyre }\IeC {\cyrb }\IeC {\cyro }\IeC {\cyrv }\IeC {\cyra }\IeC {\cyrn }\IeC {\cyri }\IeC {\cyrya } \IeC {\cyrk } \IeC {\cyrp }\IeC {\cyrr }\IeC {\cyri }\IeC {\cyre }\IeC {\cyrm }\IeC {\cyrk }\IeC {\cyre }}{12}}
\@writefile{toc}{\contentsline {chapter}{{\cyrillictext  \CYRP \cyrr \cyri \cyrl \cyro \cyrzh \cyre \cyrn \cyri \cyre }~\IeC {\CYRA }~{\IeC {\CYRP }\IeC {\cyrr }\IeC {\cyri }\IeC {\cyrm }\IeC {\cyre }\IeC {\cyrr }\IeC {\cyrery } \IeC {\cyrf }\IeC {\cyra }\IeC {\cyrishrt }\IeC {\cyrl }\IeC {\cyro }\IeC {\cyrv }}}{13}}
\@writefile{toc}{\contentsline {chapter}{{\cyrillictext  \CYRP \cyrr \cyri \cyrl \cyro \cyrzh \cyre \cyrn \cyri \cyre }~\IeC {\CYRB }~{\IeC {\CYRP }\IeC {\cyrr }\IeC {\cyri }\IeC {\cyrm }\IeC {\cyre }\IeC {\cyrr } \IeC {\cyrv }\IeC {\cyrery }\IeC {\cyrp }\IeC {\cyro }\IeC {\cyrl }\IeC {\cyrn }\IeC {\cyre }\IeC {\cyrn }\IeC {\cyri }\IeC {\cyrya } \IeC {\cyrp }\IeC {\cyrr }\IeC {\cyro }\IeC {\cyrg }\IeC {\cyrr }\IeC {\cyra }\IeC {\cyrm }\IeC {\cyrm }\IeC {\cyrery }}}{16}}
\@writefile{toc}{\contentsline {chapter}{{\cyrillictext  \CYRP \cyrr \cyri \cyrl \cyro \cyrzh \cyre \cyrn \cyri \cyre }~\IeC {\CYRV }~{\IeC {\CYRD }\IeC {\cyri }\IeC {\cyra }\IeC {\cyrg }\IeC {\cyrr }\IeC {\cyra }\IeC {\cyrm }\IeC {\cyrm }\IeC {\cyrery }}}{17}}
\@writefile{lof}{\contentsline {figure}{\numberline {\IeC {\CYRV }.1}{\ignorespaces \IeC {\CYRD }\IeC {\cyri }\IeC {\cyra }\IeC {\cyrg }\IeC {\cyrr }\IeC {\cyra }\IeC {\cyrm }\IeC {\cyrm }\IeC {\cyra } \IeC {\cyrp }\IeC {\cyrr }\IeC {\cyre }\IeC {\cyrc }\IeC {\cyre }\IeC {\cyrn }\IeC {\cyrd }\IeC {\cyre }\IeC {\cyrn }\IeC {\cyrt }\IeC {\cyro }\IeC {\cyrv }}}{17}}
\newlabel{usecase}{{\IeC {\CYRV }.1}{17}}
\ttl@finishall
\@writefile{lof}{\contentsline {figure}{\numberline {\IeC {\CYRV }.2}{\ignorespaces \IeC {\CYRD }\IeC {\cyri }\IeC {\cyra }\IeC {\cyrg }\IeC {\cyrr }\IeC {\cyra }\IeC {\cyrm }\IeC {\cyrm }\IeC {\cyra } \IeC {\cyrd }\IeC {\cyre }\IeC {\cyrya }\IeC {\cyrt }\IeC {\cyre }\IeC {\cyrl }\IeC {\cyrsftsn }\IeC {\cyrn }\IeC {\cyro }\IeC {\cyrs }\IeC {\cyrt }\IeC {\cyri }}}{18}}
\newlabel{activity}{{\IeC {\CYRV }.2}{18}}
\@writefile{lof}{\contentsline {figure}{\numberline {\IeC {\CYRV }.3}{\ignorespaces \IeC {\CYRD }\IeC {\cyri }\IeC {\cyra }\IeC {\cyrg }\IeC {\cyrr }\IeC {\cyra }\IeC {\cyrm }\IeC {\cyrm }\IeC {\cyra } \IeC {\cyrp }\IeC {\cyro }\IeC {\cyrs }\IeC {\cyrl }\IeC {\cyre }\IeC {\cyrd }\IeC {\cyro }\IeC {\cyrv }\IeC {\cyra }\IeC {\cyrt }\IeC {\cyre }\IeC {\cyrl }\IeC {\cyrsftsn }\IeC {\cyrn }\IeC {\cyro }\IeC {\cyrs }\IeC {\cyrt }\IeC {\cyri }}}{19}}
\newlabel{sequence}{{\IeC {\CYRV }.3}{19}}
